-7.064616510218298,0.03388411073315332
-5.237038549737038,0.9997377292172416
-4.9917593675735406,0.7683695621271766
-3.7065819169778136,1.1575316236517876
-2.6659288673433386,1.259969327182228
-1.8816860288247197,1.1803200414715806
-0.5830560744069117,1.5085976861609538
1.3782228253255362,1.3661151065571375
2.402000159954225,1.2286686397208242
3.3918404847361012,1.2006345704208468
4.50580085315032,0.7055170825647252
5.593280385648061,0.7567254048709277
9.771563817846706,0.003970660892071695
