-7.04880447500955
-6.957130148344992
-5.031442419473074
-4.724099870362688
-4.724099870362684
-3.4788737522681723
-3.4788737522681714
-3.4788737522681696
-3.4788737522681625
-3.4330302779823394
-3.433030277982337
-3.2910695923803237
-2.957130148344993
-2.5612496949731485
-2.561249694973148
-2.5612496949731387
-2.561249694973133
-2.000000000000001
-1.9999999999999996
-1.999999999999999
-1.9999999999999984
-1.9263050850632666
-1.524099870362661
-1.5240998703626571
-1.0086810277682416
-1.0086810277682416
-1.0086810277682394
-1.0086810277682394
-0.7089304076196746
-0.23303027798233655
-0.23303027798233614
-0.09105697047321017
0.09105697047321157
0.23303027798233616
0.23303027798233772
0.708930407619677
1.00868102776824
1.0086810277682403
1.0086810277682403
1.008681027768242
1.5240998703626556
1.5240998703626583
1.9263050850632635
1.9999999999999956
2.000000000000001
2.0000000000000013
2.000000000000006
2.561249694973135
2.5612496949731387
2.5612496949731396
2.5612496949731414
2.957130148344998
3.2910695923803317
3.4330302779823323
3.433030277982343
3.478873752268163
3.478873752268172
3.478873752268173
3.4788737522681763
4.724099870362659
4.724099870362668
5.031442419473076
6.957130148345017
7.04880447500956
==
1 2.101838279085112 3.565750538670783 0.9230241669407584
2 3.577141974094489 1.2230420363358796 -3.401896921791243
3 6.675432127095578 1.649953441368453 -6.550682456209532
4 6.902302562408851 0.5372495122910479 -6.863274083900826
5 6.948698272078465 0.3283591996502011 -6.925030575870118
6 6.972682201081198 0.1485420010436016 -6.962022340974704
7 6.97748615622562 0.08587934796093322 -6.9713294078216705
8 6.983731945897285 0.06482176616448498 -6.979089491185923
9 6.989454291228977 0.04629218630724807 -6.986141932631479
10 6.994418633762169 0.028862858467576302 -6.992355051472419
11 6.997489534220329 0.022457737365641606 -6.995884650575465
12 7.000818292100265 0.014392840988683986 -6.999790276716651
13 7.001982935258902 0.011731832549777721 -7.001145134412447
14 7.002066840395741 0.011535426737580678 -7.001243076099559
15 7.002822384669473 0.009632619237386564 -7.002134583967267
lambda: -7.00000    energy: -7.0021345840	 0.009632619237386564:.10f	   1.0856145880	CN: 18	14
1 2.101836724322637 3.5657431084237396 0.9230246515058914
2 3.577059672669111 1.2227504552938377 -3.4018532370667915
3 6.675106210087352 1.6498465455517106 -6.550358491746465
4 6.882639512847244 0.6206712484386188 -6.837401217960485
5 6.928613643438924 0.41610559994244767 -6.89852023408684
6 6.933346759377459 0.3573558674651949 -6.907527880385624
7 6.953952561069941 0.25986553133015633 -6.935242655472196
8 6.981412573357564 0.0685643193525749 -6.97650035476832
9 6.9881541546032695 0.04704244871003738 -6.984787472771729
10 6.993287259525186 0.02953703375337824 -6.991175127293257
11 6.996128349340838 0.02328980260180913 -6.99446367335257
12 6.999485177242825 0.015233444696093557 -6.998396909417607
13 7.000746194149404 0.012526023420235788 -6.999851516387839
14 7.000872046521254 0.012166004960747046 -7.000003100485166
15 7.002512978036466 0.008570019083570912 -7.001901026755917
lambda: -6.50000    energy: -7.0019010268	 0.008570019083570912:.10f	   1.0721681721	CN: 20	14
1 2.101835049195145 3.5657350257162537 0.9230252154242067
2 3.576959718948906 1.2224253286228386 -3.401795923091243
3 6.674269795450802 1.6504750724608925 -6.5494581630854
4 6.879208029985181 0.6254516515561548 -6.833597256808192
5 6.923832935935728 0.42346470614644005 -6.893184882084762
6 6.928688205368933 0.3646044079205808 -6.902326842398726
7 6.951089780154869 0.26450529660800726 -6.9320374952221275
8 6.976621573343269 0.07699278035711643 -6.971101476616274
9 6.981958370611801 0.05915199552887174 -6.977721024333613
10 6.988837501894287 0.03770445545008272 -6.98613950422076
11 6.990239685034926 0.034173755675610096 -6.987794866662985
12 6.992488564200696 0.02836434072845151 -6.990460069247878
13 6.99253875825772 0.028176416296275875 -6.990523719253095
14 6.992507294042423 0.028200971086086213 -6.990490489668833
15 6.992608342508633 0.027952758196690297 -6.990609320618956
16 6.992609565067061 0.027947173201638975 -6.9906109429910135
17 6.992636137583457 0.027882414428027857 -6.990642154924685
18 6.992636042990995 0.027882080336553372 -6.9906420842008625
19 6.992595569509345 0.027962461394288596 -6.9905958499492336
20 6.992381830473012 0.028429959439030483 -6.990348611027214
21 6.99205282349823 0.029156723517580474 -6.989967522318827
22 6.991141191369447 0.031174566127717185 -6.988911259383317
23 6.990579618802653 0.032408560213440296 -6.988261217685384
24 6.990557930945435 0.03245342723779032 -6.9882363124515425
25 6.990136617092054 0.03341210093861946 -6.987746262184435
26 6.9898457584009295 0.03398578154950371 -6.987414253118672
27 6.989630503455369 0.034474895501247715 -6.987163922460422
28 6.989713291693477 0.034283249367092594 -6.987260453905335
29 6.990121145852474 0.03328091109642628 -6.98774017280247
30 6.989196912293886 0.03524962865051151 -6.986674734819697
31 6.988628893057443 0.03652220931673611 -6.986015430526947
32 6.988172818754166 0.0374813015947737 -6.985490537047472
33 6.9859696724693325 0.042343904581954916 -6.982938375789902
34 6.986270408486166 0.04163910156662354 -6.983289706071405
35 6.987240286444521 0.039302293290596424 -6.984427286988011
36 6.984994710693168 0.04381626367160152 -6.9818575497312985
37 6.984745078247164 0.04285657248281893 -6.981676534731122
38 6.983297668053617 0.04381699871058231 -6.980159691721424
39 6.944957636545057 0.057703614628294986 -6.940802040022264
40 6.942901518582135 0.04017357394175747 -6.940007775412673
41 6.9522800543055485 0.01638576173905193 -6.951101509239791
42 6.956565277660232 0.001677858892911388 -6.956444681261762
lambda: -6.00000    energy: -6.9564446813	 0.001677858892911388:.10f	   4.2815457027	CN: 52	41
1 2.101833241546877 3.5657262057164756 0.9230258769693165
2 3.5768357890715023 1.2220644547751878 -3.401718654916595
3 6.670068784115664 1.6592104753031904 -6.544509692064869
4 6.865319802072633 0.6642602824226529 -6.81677018112742
5 6.903643453125285 0.4831096187097472 -6.868564865324476
6 6.9028226043928145 0.439877697334758 -6.870886566548864
7 6.922554380578342 0.3333312353083713 -6.898436628451117
8 6.951910288275758 0.19362423650549232 -6.93797033863138
9 6.926981099757628 0.23605110923350736 -6.90992156591997
10 6.9183035209841215 0.2617464730311383 -6.8993606323651555
11 6.915447518098015 0.271432390319049 -6.895794514430438
12 6.913542278328729 0.27785049319874133 -6.893418334980115
13 5.113718378879135 0.7472662306821256 -5.040123949646885
14 4.993680083582322 0.5597454899938299 -4.937316607953446
15 5.045427283147967 0.49232217557635494 -4.996400133491864
16 5.049088931499457 0.48641069143154425 -5.000688787233094
17 5.076208421663602 0.5063916060757698 -5.026082006303986
18 4.870605878426011 0.20913910187450213 -4.849088834109303
19 4.892563196934541 0.1495582318346571 -4.877255007087868
20 4.886480267364701 0.0735908254608475 -4.87894441225597
21 4.89110661509686 0.07571962423330447 -4.883359939223297
22 4.8983865334451115 0.07249049986385714 -4.890981510001091
23 4.896655853732827 0.06862816940280325 -4.889643175170674
24 4.8982696643064685 0.06893405291069499 -4.891228031011671
25 4.897781955905224 0.06753477117202777 -4.890882672526379
26 4.916714166584675 0.07453570859011904 -4.90912848551597
27 5.010783901592297 0.11446324151036791 -4.999349164335909
28 5.030867133366471 0.0058109118002249716 -5.030289574347261
29 5.031223047451479 0.004289627204375535 -5.0307967287500865
lambda: -5.50000    energy: -5.0307967288	 0.004289627204375535:.10f	   3.3124480969	CN: 32	28
1 2.1018312876441914 3.5657165461172897 0.9230266602881789
2 3.5766781681587596 1.2216695191078948 -3.4016109712128455
3 3.9447697408446847 1.2661498687571147 -3.7808806433854434
4 4.270336299393129 1.1535072775827295 -4.133069662167802
5 4.410014284758809 1.0472520808732675 -4.28963563847834
6 4.438929501033133 0.8968424866052302 -4.336732944110927
7 4.576587907849877 0.8059269112167904 -4.487675341093752
8 4.638233633194796 0.7916576636124937 -4.55209331763826
9 4.665223366253417 0.7562762780704553 -4.583452059198002
10 4.7675176614704675 0.5994522219124683 -4.7042292068436
11 4.794509079589767 0.42897723377246777 -4.749562093550967
12 4.820231866088331 0.38897382797751945 -4.779713528536609
13 4.825012662666752 0.3818873415330941 -4.785275316359699
14 4.82302325801437 0.3708280762822227 -4.784425281166518
15 4.823141092623818 0.36855853241820924 -4.7847812350135985
16 4.832342658227739 0.3667238336214531 -4.79424777550202
17 4.776943908138341 0.23477765547998075 -4.752306329143779
18 4.789385740223131 0.22669900049349678 -4.76566016079191
19 4.791420636083566 0.21904597558828698 -4.768507705383222
20 4.7965623842269824 0.21863081452110222 -4.773717617461273
21 4.796357742889338 0.2149439062687719 -4.773898165179661
22 4.797623154057888 0.21273242896797484 -4.7754010825672415
23 4.799839661850513 0.21022947144846782 -4.777889838414525
24 4.796775094772142 0.20084496056169598 -4.775793792581983
25 4.807521407619383 0.18647714781234725 -4.788087816331934
26 4.808411479355727 0.17489080652498856 -4.790191034632643
27 4.8159762127889945 0.13928255675162404 -4.801493968068459
28 4.83922497954656 0.10718621488278401 -4.828137548556858
29 4.844348460346418 0.09918247953213921 -4.834100694620311
30 4.844471989517691 0.09678204363418885 -4.8344727544570265
31 4.855800036013215 0.08011783064075217 -4.847543311730716
32 4.866046052849858 0.06058265767954296 -4.859817026470866
33 4.871026617545374 0.05595358840507103 -4.865279716566197
34 4.873771241841663 0.052949053389845346 -4.8683361700290355
35 4.875948735572646 0.0505558951313283 -4.870761765555892
36 4.875414200367886 0.049410862379897225 -4.870344213992368
37 4.874904799914305 0.04858558564673032 -4.869919016018727
38 4.8750952123097155 0.047345734091368996 -4.870236913641239
39 4.874884316756522 0.04684680111405726 -4.870077032311156
40 4.8759278680416775 0.04650652255857679 -4.871156541498834
41 4.882450295870995 0.04543750227094279 -4.877794931050281
42 4.887508996283473 0.045962788175135216 -4.882804665412774
43 4.895795047961521 0.045150895081036424 -4.891181683045878
44 4.906778008730536 0.04109519697063746 -4.902588625409129
45 4.907840727411975 0.04011729718013868 -4.903751962371626
46 4.907224993421348 0.0383681864740133 -4.9033140782113005
47 4.907674340416424 0.03819127560747759 -4.903781821816128
48 4.907245063571386 0.038045496095111986 -4.903367069458559
49 4.907838941166041 0.038106688262477206 -4.9039551776258445
50 4.909529108356661 0.03830742284155875 -4.905626223323561
51 4.911115600335255 0.038396841862684994 -4.907204866112035
52 4.914868743929305 0.03867754397056089 -4.910932419213551
53 4.929961377956024 0.03832351029143055 -4.926073048366886
54 4.9347969165455465 0.03533206041105785 -4.931215727093713
55 4.9329778649849505 0.03424391972711405 -4.929505725395231
56 4.932126738799002 0.03383227205432604 -4.92869576008925
57 4.936614610420295 0.03336482912784078 -4.933234130130789
58 4.9502661141393505 0.0308720493948762 -4.947146910230322
59 5.02067221274878 0.007401839491780748 -5.019935022326081
60 5.031418154796452 5.6321372532863734e-05 -5.031412557825366
lambda: -5.00000    energy: -5.0314125578	 5.6321372532863734e-05:.10f	   3.3185671665	CN: 68	59
1 2.1018291741113098 3.565705932282107 0.9230275970215203
2 3.5764711273314354 1.2212527752405862 -3.40145453437126
3 3.9170368527770907 1.2220279894965866 -3.757811825586436
4 4.228613507134393 1.1085897704591403 -4.095434338658146
5 4.350217460335892 0.9951380388672213 -4.234294972406154
6 4.3730032601905995 0.8447114514717882 -4.275329936059418
7 4.436687561479239 0.8173663828466786 -4.343596451713478
8 4.48528021599816 0.7664974438865606 -4.399004566051044
9 4.41890168691659 0.6942923795102516 -4.339631290688649
10 4.586518945519628 0.5761261682081411 -4.523276452904723
11 4.730270508235757 0.471079754790825 -4.680211461707059
12 4.720886745294875 0.44579271564015244 -4.673433314626484
13 4.698055662330618 0.37152824167466747 -4.658347213839058
14 4.737330702657652 0.2624594315384421 -4.7095480414583735
15 4.7965199530763165 0.17851264315051907 -4.7778751571288165
16 4.8006498107589435 0.16155205432497866 -4.783794158533047
17 4.799700026273752 0.1608702072579966 -4.7829123068434205
18 4.802539792696925 0.15656533211028645 -4.786211772198044
19 4.802641712507586 0.15437255883718493 -4.786543101224579
20 4.811736130540564 0.14592175372242977 -4.796549054917197
21 4.814555771405901 0.14317105367852534 -4.799664178075311
22 4.814503198048345 0.1425570056244574 -4.799675409691085
23 4.817021947370079 0.13823470031377383 -4.802651948781136
24 4.816869338194612 0.13801408171543983 -4.802521852061056
25 4.817725717838372 0.13686149587813645 -4.803500764696839
26 4.82979726648019 0.12032053977884516 -4.81732509755369
27 4.8300563768804645 0.11981267670812557 -4.817637587774272
28 4.829628201452114 0.12007178871002822 -4.817181414017076
29 4.829705139992466 0.11990499084212658 -4.817275863849559
30 4.823629723139809 0.12104986194098188 -4.8110657700780655
31 4.829360154071873 0.10733754843415255 -4.818234318638203
32 4.857647063101692 0.06278702389699475 -4.851180059095261
33 4.855454567965755 0.05719945206457666 -4.849560764596619
34 4.813171627003649 0.06983406943129822 -4.805911676421203
35 4.723445911117569 0.0034531210941928236 -4.7230803671077926
lambda: -4.50000    energy: -4.7230803671	 0.0034531210941928236:.10f	   2.4209079837	CN: 44	34
1 2.101826887585203 3.5656942289684768 0.9230287300011981
2 3.5761874851462196 1.2208549370349377 -3.401214781792162
3 3.867376328282068 1.1777996403701394 -3.7119806066554757
4 3.887540681720569 1.0072787955032556 -3.7557547519146093
5 4.1141606732181595 0.9150007902266033 -4.0014144067852175
6 4.219766409007325 0.846435988293134 -4.118251152891654
7 4.211986457593388 0.8177734220315926 -4.113764273377669
8 4.208760237463658 0.7915365870275757 -4.1136511944290515
9 4.113623129310263 0.7962624928045372 -4.01567338776348
10 4.120827345002582 0.7936588700348359 -4.023376584075395
11 4.077763952362189 0.7874316940011425 -3.9800410999364515
12 3.807472938532934 0.6670494435520524 -3.718844005078535
13 3.6819801610117775 0.4961700099832953 -3.613973975570524
14 3.8181440262425874 0.5197445184160401 -3.749463866570247
15 3.756477153549186 0.44423810423977095 -3.696874693696991
16 3.7606489413757274 0.44059368792972897 -3.701605972053299
17 3.6777013309926185 0.290547595397765 -3.6379856355663516
18 3.6973586947150396 0.25621100860207946 -3.6625469701811086
19 3.7066620139332036 0.25904609423042047 -3.671552422518972
20 3.7056224510378146 0.25374786725743803 -3.6712245753124475
21 3.6740856738513816 0.2322133935595545 -3.6423470654566135
22 3.4471268294740693 0.028126798047571455 -3.4430446672142345
23 3.4330332314336616 2.6755324535443492e-05 -3.433029334684356
lambda: -4.00000    energy: -3.4330293347	 2.6755324535443492e-05:.10f	   7.6396824987	CN: 36	22
1 2.101824416682674 3.56568127955546 0.9230301181478322
2 3.575776025259069 1.220597099418498 -3.4008200604264625
3 3.607829134449687 1.0497870178327915 -3.45928374747594
4 3.718148356062261 0.9880467687160834 -3.582817387053436
5 3.7525040209595604 0.9601698980022917 -3.6223081770213006
6 3.5704080892240406 0.9158735890480632 -3.4397587610977016
7 3.558644379310195 0.9038149019542452 -3.4293053110567158
8 3.4846607929319844 0.7785869364983871 -3.371093873700193
9 3.533979484401685 0.7179338136000109 -3.430900345765232
10 3.672857580605352 0.5858610499928218 -3.5922168305125144
11 3.6726479339293383 0.5480004842729258 -3.597268736461388
12 3.6276508110167347 0.509956892258483 -3.556668878938815
13 3.621940675824111 0.5000567295621483 -3.552238382995582
14 3.5290737640594685 0.386142256058168 -3.4739342791876036
15 3.4368576969668516 0.3377562221245469 -3.3873639614124347
16 3.4418261201099525 0.3150171045827008 -3.395754693214518
17 3.3855959121459307 0.04518049870249996 -3.378916865156161
18 3.392854013198047 0.02549008123679819 -3.3890954949126613
19 3.4333849009941453 0.002651831343751354 -3.4329986960426924
20 3.4325585268290992 0.0008783358802766372 -3.4324305825794754
lambda: -3.50000    energy: -3.4324305826	 0.0008783358802766372:.10f	   2.6992051134	CN: 30	19
1 2.1018217551244534 3.565666904523317 0.9230318444079387
2 3.5751281040851417 1.220852582516443 -3.4001012305669627
3 3.6054112259714177 1.0510627432620172 -3.45657740620671
4 3.226689342595418 1.1394094464281732 -3.0450147236410325
5 3.3099467730107204 1.081341248946977 -3.1423568211164534
6 3.320696568260984 0.8927252211734338 -3.183441608901731
7 2.8968415562296888 0.46378449631990293 -2.8156538326966514
8 2.893295725873394 0.42294331851720557 -2.8192582071956522
9 2.9205560687333207 0.38963101120942945 -2.853071457115226
10 2.839178717834517 0.3284694288589529 -2.780731264064454
11 2.8697758771713984 0.30050677586781926 -2.81693216271302
12 2.89578515977697 0.28970131363471907 -2.845324301015582
13 2.9489255847615405 0.2712195304309315 -2.902575162511776
14 2.954382860506755 0.2669033508020906 -2.908861415683804
15 2.9733394404756877 0.26329631873586123 -2.9287285824317033
16 2.9803832409164603 0.26292563349393383 -2.9359425452896324
17 2.97789996891329 0.24402295643754357 -2.9366418352288433
18 2.9767396589908373 0.2370372532260987 -2.936654856155688
19 3.0269136698608077 0.20943918956591823 -2.9921175069211943
20 3.0285916457937136 0.20516218521822793 -2.994529207029587
21 2.9971189553429736 0.19189702078319826 -2.9649325475789423
22 2.9992055657432606 0.16914231158530413 -2.970873897357484
23 3.0070450879828 0.14710863483928804 -2.982484120045268
24 3.0126597820919807 0.12664432932148983 -2.9915672536837628
25 3.031976059787473 0.10820622309771011 -3.0140790639972703
26 3.036505912261626 0.10316704108275943 -3.0194703366844076
27 3.0973387606119736 0.05858459763807922 -3.087867030872806
28 3.1029056413060436 0.04900050628459063 -3.094999662772886
29 3.028552912000311 0.03486537451725269 -3.02279132033098
30 2.999878846782976 0.018463720767069702 -2.996799855614133
31 2.9663279689395305 0.004983737268602795 -2.965487798330035
32 2.9647878605595035 0.0036952996355505974 -2.9641645970636388
33 2.9641523566617307 0.0033826695057577183 -2.9635817053014644
34 2.95713138958124 3.744739389688334e-06 -2.9571307564102205
lambda: -3.00000    energy: -2.9571307564	 3.744739389688334e-06:.10f	   3.7452538355	CN: 50	33
1 2.1018189084132723 3.56565090650284 0.9230340282246995
2 3.573969060581978 1.2229404843261804 -3.398575342944606
3 2.6617275812594023 1.2454734484017287 -2.4164685531649894
4 2.664371278579252 1.0830250940117052 -2.452722816811213
5 2.6699124606081326 1.0177380688042605 -2.4719818928354456
6 2.798501055257761 0.8974161810423178 -2.6332853957056157
7 2.8864971849240852 0.33716554112786135 -2.827490133925635
8 2.824880368033585 0.3128000837917808 -2.768961720556964
9 2.835363557175537 0.3031916366506797 -2.781383624153352
10 2.8322393149634886 0.3018528785850503 -2.778439608600446
11 2.740427603057413 0.34391747651303906 -2.676943400799867
12 2.759405442608882 0.3199445486994197 -2.7008098503967473
13 2.7144747795623276 0.32930063640901786 -2.653125080442105
14 2.7416061640537825 0.30606639404313274 -2.6852072480042506
15 2.714964358870377 0.2975571644309669 -2.6596004033511256
16 2.8095266020699032 0.23469756581431067 -2.767443253605057
17 2.8090251125326042 0.22485199089873387 -2.768712713869042
18 2.742232913768857 0.22731794316133147 -2.700467257752981
19 2.7453188318445476 0.19831313088246194 -2.7089596448817486
20 2.7491422293947925 0.19310888847655772 -2.7137933062348742
21 2.736980249773936 0.19350627245863716 -2.701398640555288
22 2.716534988909001 0.17996082040023165 -2.6832073206456846
23 2.7168710592991787 0.1725815571458611 -2.68492212097699
24 2.7206543979253586 0.1653982244046972 -2.6900858961278353
25 2.7231129278645247 0.16335858017557392 -2.6929510648593915
26 2.7258056139663895 0.1608075933300004 -2.6961470011482467
27 2.725943582936241 0.137665762784704 -2.7005745045390928
28 2.726109187279503 0.13694841618120268 -2.700874466684542
29 2.723987199792002 0.13763064520015877 -2.6986062364543875
30 2.708473670554221 0.14145978668808645 -2.682232248966776
31 2.708285088137612 0.13984708451507988 -2.682342452803794
32 2.707337048334925 0.12714860358044966 -2.683752091700426
33 2.7056892260795378 0.11185785921432334 -2.684938794257434
34 2.5620214878807075 0.009018270149853791 -2.560260891825796
35 2.561249964970552 3.7942636161858445e-06 -2.5612492242649947
lambda: -2.50000    energy: -2.5612492243	 3.7942636161858445e-06:.10f	   3.4590608911	CN: 50	34
1 2.1018159063586177 3.5656330843301864 0.9230368464432561
2 2.5807487815446892 2.3702356686190607 -2.071238422979193
3 2.157223750345115 1.155834216400215 -1.8702353040868476
4 2.153684093932613 1.0330594379600302 -1.8987616328803119
5 2.003522659968748 0.948314519143711 -1.750939327865056
6 2.029352692575868 0.8998050887257865 -1.7940087129496154
7 2.0335419205662304 0.8766183029672412 -1.8051798912388064
8 2.029956890191029 0.8318415851811829 -1.8135278853254087
9 2.156987528268136 0.7690343804453268 -1.9706752184616705
10 2.19651132900068 0.7444006984057827 -2.0199656729812383
11 2.085400718037822 0.6959167915431874 -1.9112768934012347
12 2.083431303792606 0.652973814260942 -1.9203416840140755
13 2.221641809812068 0.5272413737581161 -2.099631147927398
14 2.2598197532979674 0.4842029190855879 -2.1500191623123026
15 2.0655642558178893 0.4284161895726628 -1.9591170218595537
16 2.045330623247109 0.4114264991487113 -1.9421510907351396
17 2.009161605846662 0.38895075051985595 -1.909916125877909
18 2.0125074302245514 0.37678956179470324 -1.9166107051027137
19 2.256982693012466 0.2736908549211332 -2.1955136122640346
20 2.2537403253027017 0.2716280751633633 -2.1926507653368246
21 2.2762158146142943 0.244739396218427 -2.2218053556695256
22 2.279349409233606 0.2417700959695388 -2.2256827342197827
23 2.3095245172025014 0.21603590163233566 -2.2622704511015277
24 1.819649740303288 0.07101855171904203 -1.8000296179970985
25 1.8533978424939592 0.05553916914353296 -1.8383537182538423
26 1.9215760282978125 0.05575004999576816 -1.9070145207976332
27 2.000005069286759 2.0557899935713664e-05 -1.9999999298181976
lambda: -2.00000    energy: -1.9999999298	 2.0557899935713664e-05:.10f	   0.0000098770	CN: 40	26
1 2.101812826552238 3.5656132616920657 0.9230405712467027
2 2.5796534736613936 2.371442255682167 -2.069582032317425
3 2.0221209112713243 1.2002051100493394 -1.6996375701164732
4 1.9115981756292995 1.0008880194144822 -1.6289013369921403
5 1.9118406637620715 0.9192119346004977 -1.6540625106124915
6 1.8495070014485262 0.8454741121406757 -1.6047436045257948
7 1.8442202366231895 0.8079959325815462 -1.6103267831682317
8 1.7054159178960522 0.7575095820764157 -1.466606242635294
9 1.7182072680600275 0.7407633131484905 -1.4871021830613425
10 1.6858564748413447 0.7015303359966296 -1.4630726973625932
11 1.509830009458267 0.5729918087465946 -1.306367042111119
12 1.467892125649501 0.42693510668765233 -1.3144474831107387
13 1.5146924063605802 0.43224929076547447 -1.364567255623895
14 1.4907760309135367 0.4236598785473862 -1.3411760867980496
15 1.4803690682280926 0.4178526820046997 -1.331780723753655
16 1.5064340939908445 0.4205983509539557 -1.3596857462605314
17 1.3698340525123163 0.304775275052267 -1.2536626565268851
18 1.3836247307560365 0.2533151411352488 -1.2888375593628796
19 1.4106538497297116 0.2528759686103179 -1.3179788750761283
20 1.4147958300084662 0.2507229969729561 -1.323224940679546
21 1.411986184050318 0.24928775893602206 -1.3207638793565468
22 1.4360479166844249 0.25074991296791205 -1.3459137067604903
23 1.4380531355575386 0.24498616269371642 -1.3501891193433424
24 1.4876475242135572 0.2029271286390868 -1.4178039454239215
25 1.428519001777085 0.18700625703532014 -1.3614919321842773
26 1.4027054028994028 0.17509377292268802 -1.3388385542702625
27 1.413994353144089 0.17732531758868553 -1.3498350688638534
28 1.4232315895086483 0.174435653710723 -1.360570653683442
29 1.4439823014528923 0.17322640419686475 -1.3826997080755912
30 1.3890624182901068 0.13305272982315963 -1.3403140199530847
31 1.3957555866276374 0.11633974278724812 -1.3534378134273513
32 1.5348375370106737 0.03963470818646364 -1.5218710710275447
33 1.5251427155621053 0.0004608414898070734 -1.5249916266466332
lambda: -1.50000    energy: -1.5249916266	 0.0004608414898070734:.10f	   7.8188858902	CN: 40	32
1 2.1018098458087824 3.565591378653392 0.9230456377045201
2 2.2048247929682523 2.72726185045894 -1.460818440884614
3 2.182852203810435 1.7170865849821482 -1.7457826779693755
4 1.414956143973544 1.338357035022384 -0.814704765142622
5 1.4448136307989097 1.1542711370467582 -0.9660306882783631
6 1.2554018273348733 0.9693004385442618 -0.7789308759649184
7 1.255780283439366 0.8430982819254441 -0.8566713712676575
8 1.2160343194933139 0.6620892084372595 -0.9036870352883823
9 1.1071734736652656 0.5091009853401247 -0.8466003280461708
10 1.1407395565675673 0.5097635395605121 -0.8896758939959295
11 1.054278325366345 0.4577826479144266 -0.8085296156745504
12 1.1122070453088415 0.4388106620844896 -0.8934169516805308
13 1.0530798954994607 0.3722672316264706 -0.8583181430441058
14 1.0685829702061755 0.3747012213006725 -0.8758814662464199
15 0.961595459435477 0.3207867160181135 -0.777096590900263
16 1.0127664120917126 0.315606679018661 -0.8426678624716017
17 1.0511557371782965 0.249946099479896 -0.9246525208546994
18 1.0180987973750273 0.2278066626449906 -0.8992877729467275
19 1.0177296646680924 0.2257215190318551 -0.9000289724856481
20 1.0197401452265002 0.22376795847658615 -0.9033836423745873
21 1.0201523451558556 0.22321983024505454 -0.9041520763023969
22 1.0220356060934934 0.21828778253818015 -0.9089933979874182
23 1.0030596970187065 0.2007837595550006 -0.8974101605332188
24 0.99908723708442 0.19625881934858502 -0.8954978994706764
25 0.9878047742182726 0.1831113186676101 -0.8903072241090721
26 1.0083084582484665 0.17815731812909696 -0.9157120884024088
27 0.9688124301416717 0.13956883570911427 -0.8938840467800596
28 0.9489703536262982 0.12480533627098689 -0.8807606915562443
29 0.9457390046376346 0.12322850652771145 -0.8781763822634218
30 0.9471476493945751 0.1170840300034185 -0.8831787133702038
31 0.9536102218975092 0.11250384916225908 -0.8926749722856335
32 0.953521353492697 0.11134097894154504 -0.8932312089403274
33 0.9547963075826279 0.10903692238460383 -0.895878935229987
34 0.9568650732184946 0.10793962719825767 -0.8986941310296713
35 0.9597904523949803 0.10834454865084231 -0.9015836976441607
36 0.9592779540812227 0.10811348450850944 -0.9011663046728644
37 0.9640643937776732 0.10808886359311609 -0.9062732986008115
38 0.9666681103768209 0.1082975586209719 -0.9089277622553513
39 0.9706390382915311 0.10531837329711546 -0.9147796288496984
40 0.9663730039225578 0.10216412952830922 -0.9119828140825887
41 0.9661841935694239 0.09984568454353637 -0.9130532357753629
42 0.9655891362893287 0.09858766553197762 -0.9131126516416215
43 0.9651310417587727 0.09828920396388907 -0.9127917198367235
44 0.9630982761478264 0.09720842545885455 -0.9112353505324842
45 0.9603945993132681 0.09632054778675325 -0.9088659079332543
46 0.9610045410891704 0.09590488815632547 -0.9097388855257758
47 0.9556926717353287 0.08911654561405513 -0.907872203118123
48 0.9269931315151176 0.06425294206506327 -0.8916632345292361
49 0.9030466781681303 0.04663398961836407 -0.8768462312926535
50 0.901324148547985 0.04442210617297715 -0.8763350469898897
51 0.900579131385397 0.040755290435677605 -0.8776602312120547
52 0.8966640960463603 0.038714107411783494 -0.8748099186262417
53 0.8956171003403997 0.038205268652126034 -0.8740278724217083
54 0.8956505120425744 0.03753534604443032 -0.8744452491023633
55 0.8900456885824066 0.03531887488039154 -0.8699784209299319
56 0.884790314767093 0.033178604046599336 -0.8658379161592838
57 0.8758701308078106 0.029416092577865816 -0.8589134959141254
58 0.8750774500451594 0.02850203893792902 -0.8586375863189359
59 0.8750095640573038 0.028232355617958782 -0.8587254401575586
60 0.8759455053624917 0.028078355292107893 -0.8597686741633717
61 0.8763884143157957 0.02748854291361158 -0.8605626704856202
62 0.8764616559047372 0.027217125966288225 -0.8607949281361877
63 0.8759084798759228 0.02677434287375624 -0.8604890018151259
64 0.8749380050383807 0.026119307763116106 -0.8598820877872875
65 0.8753495033991754 0.025899135641354043 -0.8604287404891979
66 0.8745359029267393 0.025428923656949376 -0.85987448028822
67 0.8753260518957974 0.0252742676335177 -0.8607679301030942
68 0.8755003521220905 0.025113752497100572 -0.8610383929121874
69 0.8748194665811755 0.02477468929953297 -0.8605430900366573
70 0.8745396538981561 0.02438472297214933 -0.8604852603433459
71 0.8764711173358046 0.024474135852821877 -0.8623963611188599
72 0.8770764036693741 0.024345632921776494 -0.863085966142322
73 0.8786424791144538 0.024467931973669255 -0.8646066586203944
74 0.8801743774839199 0.024543447961186793 -0.8661197877995968
75 0.8824003482333002 0.02481931361160339 -0.8682229327486375
76 0.8844501939818735 0.02506129588990702 -0.8701671389708218
77 0.884843163561936 0.024902129993665367 -0.8706579662006363
78 0.8871512789446655 0.02522303800283887 -0.872819771619729
79 0.887305844049054 0.024951767149851145 -0.8731322315283935
80 0.8895672492253391 0.025119160610238223 -0.8753346390290386
81 0.8899397596267173 0.024809516694496825 -0.8758899811448703
82 0.8956690906786812 0.025410543086051396 -0.8813697163569458
83 0.8979974657536378 0.025114849547088536 -0.883903048389848
84 0.9112499570616791 0.026611890939438942 -0.8965291926677412
85 0.9088528381362091 0.024643602606697068 -0.8951926489764894
86 0.9486893370201495 0.026168794922102223 -0.9347955194873516
87 0.9725109911229515 0.019147663630049494 -0.9626162081665228
88 1.0058051930886693 0.00936989834905555 -1.0011364482901812
89 1.0080027232810944 0.001877261684690934 -1.007071113902792
90 1.0084494895496394 0.0006289040881184427 -1.0081376239803812
91 1.008594000030224 0.00036407691592499347 -1.0084134965286022
92 1.0087435148288117 0.0002526551964661117 -1.0086182744292898
93 1.0087017144506296 0.00018575564298273228 -1.0086096336505295
lambda: -1.00000    energy: -1.0086096337	 0.00018575564298273228:.10f	   5.1260242051	CN: 94	92
1 2.101807349454539 3.5655677051778 0.9230527769544452
2 2.178175206263414 2.8614031516263596 -1.3722405319601605
3 1.6798035435276708 2.510625500482295 -0.557776339015759
4 1.3165331063518755 1.1835261981923346 -0.7414399651544166
5 1.118641966650663 0.9169533851879985 -0.5782788811326791
6 1.0840183763964146 0.6256038410508566 -0.7412772755954826
7 0.973081762872277 0.590092669282528 -0.5973235705646383
8 0.8594417683641525 0.5255714902528309 -0.4615936123432267
9 0.8409879214241148 0.5033268078306644 -0.45159038536110047
10 0.7666322371093537 0.44250406787649477 -0.38107862587502284
11 0.7052672443520869 0.37190780236975196 -0.3542514411914687
12 0.6264702425188119 0.2567642348108647 -0.3683757998983004
13 0.5734314232961202 0.20852004372083366 -0.346848026522537
14 0.5674068517368124 0.20212668438621206 -0.34615581897704295
15 0.5572338365817907 0.18658397053146442 -0.35203064937615247
16 0.5265476718908415 0.1661811419671662 -0.33327362452870035
17 0.5249820693010661 0.15812732432337293 -0.3427518763832744
18 0.5264739479859333 0.15566834223366294 -0.34857778998988354
19 0.5148092483901772 0.14858646372941642 -0.3412361330495959
20 0.477287329136626 0.1324871495570282 -0.30873296713720877
21 0.4711807006975076 0.12878824198342018 -0.3053244351937349
22 0.4389604513190552 0.11263459065468982 -0.28293406858760867
23 0.4677107007991511 0.1176360384741739 -0.3179894041754502
24 0.46064698106191837 0.11444228788824042 -0.31265532663496653
25 0.44987867434449186 0.10980125686264883 -0.30428533445979145
26 0.4251005546835756 0.0988279762257595 -0.28615119319430216
27 0.4062619681709366 0.08771191783341306 -0.27809507178069454
28 0.4103958325473914 0.08803839534784363 -0.28352485609628925
29 0.40542898669811084 0.08450271071052791 -0.28261272537613713
30 0.40732172060331806 0.08480726151289322 -0.2847871530851658
31 0.4038501311193529 0.0830051628095633 -0.283001352639089
32 0.40414536150875463 0.08270595660178325 -0.2839498487889326
33 0.3939261940426237 0.07875161875312137 -0.2764529392135016
34 0.388854735862421 0.07681315466171627 -0.2727541950931568
35 0.38081666065430764 0.07385586899928291 -0.2667685514310375
36 0.3802733784139607 0.0736463669138343 -0.2663859519879606
37 0.3784189312013833 0.07227008465196517 -0.26632837407912535
38 0.3970763011172517 0.07736814861925548 -0.28337508763069097
39 0.42774297850530185 0.08264659594754219 -0.3167293161566263
40 0.4568263447923497 0.08557121977846788 -0.35088329900106346
41 0.4514647131934605 0.07873938633731531 -0.35366792464335417
42 0.4876232091886615 0.08134235930003825 -0.3955174267202515
43 0.47386646846108593 0.05541472969843331 -0.41125989378171446
44 0.5793846199632313 0.05555426410938985 -0.529275234391849
45 0.6359130702611585 0.03984583452171625 -0.6037711473789182
46 0.6663451745078999 0.026694734394059894 -0.6460039916253631
47 0.6985671948451886 0.00802231473131143 -0.6928014224744081
48 0.708677281963198 0.00030271320839336813 -0.7084636735658021
49 0.7088975102167221 2.5738758618998325e-05 -0.7088793559082163
lambda: -0.50000    energy: -0.7088793559	 2.5738758618998325e-05:.10f	   4.9992435010	CN: 58	48
1 2.1018061841141313 3.565543388800653 0.9230632951102273
2 1.8288265624855486 3.160246170381968 0.4293721291266332
3 1.5038920903619397 0.9197377292400037 1.1584272485629812
4 1.2317215638067285 0.7673827268438416 0.8658841053528172
5 1.0201762068548534 0.6485298715262253 0.6262823816031629
6 0.9469619927394086 0.53127655718523 0.6045332567425548
7 0.8201588080417503 0.4930603214774719 0.42379257772050605
8 0.7839023386717014 0.4512315862087435 0.4040684228768906
9 0.7331850522418246 0.37662255799083344 0.4011704909885717
10 0.7009793818567314 0.35242366503462486 0.37275786880174444
11 0.6766582351227404 0.33225086700542283 0.35442277036612274
12 0.6388232125084912 0.2876129469678618 0.34710538726992574
13 0.619108247786002 0.2741862400421065 0.3303161855473413
14 0.520773343638471 0.19780177870497073 0.2709300587594895
15 0.4897409921624149 0.16125183676963928 0.280346932629172
16 0.47937095097535726 0.15051312878084336 0.2815730453331309
17 0.4741354143911229 0.14836636421548743 0.2764742790285445
18 0.4651626528637865 0.14731559321203438 0.2627940265821127
19 0.45772344695303857 0.14283648254077475 0.2582136157327789
20 0.42370879441311393 0.11875564453888754 0.24652281420616207
21 0.4125034386629943 0.11239772323425373 0.24033593920705987
22 0.40921051150118587 0.1110954249722425 0.23739801547363154
23 0.4065260775193632 0.1097491570471267 0.2356147165525777
24 0.4062886770760103 0.10962165562393665 0.23547575989098476
25 0.40520422445852994 0.10865888634989111 0.23565138906687344
26 0.40470453319307337 0.10862489287939531 0.23486350569560066
27 0.40307621683890543 0.10990689959705235 0.22926739189014836
28 0.40260890703943114 0.1105610775324577 0.22700848991838726
29 0.39185493177645175 0.10817549344759306 0.21301360076279968
30 0.38580598469577515 0.10534726751071288 0.20856411560084495
31 0.38319250175441066 0.10438338501313885 0.20604152102832077
32 0.3816521113416101 0.10379985213901034 0.20459345530220993
33 0.3805325824276085 0.10213996760815662 0.20655526786036457
34 0.372645409889789 0.09899640308973652 0.19967022417524244
35 0.3651311166078867 0.08951064994004104 0.209308581704812
36 0.3255655374900259 0.060313842965256846 0.21372663904135017
37 0.2936565146211012 0.03806884635753899 0.2194659477501533
38 0.24054857985909098 0.0029010014485769606 0.23444107537640985
39 0.2336610684474114 0.0002775697326938345 0.23306635358903904
40 0.23304894775880747 9.471182407488898e-06 0.23302862671585797
lambda: 0.00000    energy: 0.2330286267	 9.471182407488898e-06:.10f	   12.6865049659	CN: 50	39
1 2.1774679422978442 2.9132578627987367 1.3520757289945227
2 1.678176564604511 2.573423462992397 0.4928012976803129
3 1.32601872387788 1.1375676526663834 0.7878819730190152
4 1.0910490571604716 0.8195934370299861 0.6089290665592879
5 1.056605628004012 0.7672616722075338 0.5908923598441735
6 1.0283557134630026 0.551955815657136 0.711027184961913
7 1.0005097875119235 0.5342656852673782 0.6831940790432642
8 0.7895248567113801 0.4032285897589767 0.46917044835128596
9 0.7647298148336592 0.3841511168225772 0.447951529602192
10 0.7019050289698787 0.34286985770939116 0.387041098571991
11 0.6692922701940556 0.30980820953243243 0.3716771897885024
12 0.6220166037323527 0.26225473013200074 0.3530579629278006
13 0.5848602102248569 0.21333658694097776 0.35878249478379576
14 0.5317847502373189 0.1726540446477298 0.3318749402067536
15 0.5260337554929008 0.1685906349514174 0.328817391520804
16 0.5042915092903738 0.15432753131740412 0.31619992888196113
17 0.48774763553025263 0.14411807253081588 0.30623468685721156
18 0.5017864175257195 0.14391011588580632 0.3284501376578921
19 0.4945707890699384 0.14113673116263242 0.3216574796870546
20 0.4833522410635683 0.13537725849363377 0.31345195875530657
21 0.48951412229834496 0.13715030278209234 0.32011524978892414
22 0.48597862522449664 0.13575429919378532 0.31689260796254815
23 0.4589609921844919 0.1205223474929147 0.30020467160598513
24 0.45444478350262535 0.11867539168626696 0.296386014458307
25 0.4596382922470936 0.1201957899827891 0.30178066491581956
26 0.45559862338596535 0.11810095699013168 0.29911393922893936
27 0.4489464037239166 0.11521395010992881 0.2938348572016387
28 0.44915751980959007 0.11350569616697859 0.2970467664098066
29 0.4351849645391309 0.1055760775186669 0.2894993537855588
30 0.4322833706781889 0.10337240755047798 0.28895761802454234
31 0.4112748152543677 0.09511464035761252 0.27208883348072316
32 0.4137585534205135 0.0957455095484391 0.2746827824604155
33 0.43159966679219686 0.10152917911958276 0.29111697521022556
34 0.42853563076565576 0.1000507782820828 0.28912282606815065
35 0.38861712083243555 0.08362384365221247 0.2596139883594072
36 0.3636364292053618 0.07274503288562789 0.24389837998559305
37 0.3259307300042529 0.05786404512278579 0.2199245225942724
38 0.32444874491859216 0.05696839698690222 0.21976940435908357
39 0.3254183601517385 0.0570320558148268 0.2210544125526989
40 0.3177868211699827 0.05331345310408943 0.21834607989435556
41 0.3214209740330761 0.05410816222442234 0.2218181244261801
42 0.3057240860197799 0.04767149359578102 0.21399935321595653
43 0.3308261439560642 0.055016483796571834 0.23330120815860758
44 0.3111695714152484 0.047529552607031636 0.22202916377745868
45 0.3057213099939966 0.04551573215242948 0.21897439857667111
46 0.31437341506662037 0.048279572648012865 0.2248356543180728
47 0.3083401850206847 0.04597158013730124 0.2215899130404822
48 0.3108961002452424 0.04673371425030855 0.22343381771206972
49 0.3081306781633992 0.04572117911611209 0.22186332664350622
50 0.30891293462679853 0.04595754087733372 0.22241776076205302
51 0.31867713798742425 0.0487850327330003 0.229717403656872
52 0.3709605049923942 0.06399339071922094 0.27132693479452064
53 0.4563233633398852 0.07062371613883747 0.3709545737566619
54 0.4563792293249585 0.05148069697895993 0.39598144398479357
55 0.5240861488555534 0.057482314820898356 0.46603001684585266
56 0.6037090428066423 0.04953475221244463 0.5611861154323643
57 0.6896202069778097 0.013525555118255539 0.6797429475572812
58 0.7055501979929526 0.0026970501275788705 0.7036362922421746
59 0.7072803270262623 0.0012509362855327444 0.7063954449972359
60 0.7084328608297045 0.0004020794974038955 0.708149023021253
61 0.708526659991031 0.0002986593086710121 0.7083158678226644
62 0.7088977465656187 3.8567827400082244e-05 0.7088705433705165
lambda: 0.50000    energy: 0.7088705434	 3.8567827400082244e-05:.10f	   6.9590627874	CN: 64	61
1 2.177612977449087 2.9127818070534355 1.352485294744916
2 2.139024053929589 1.7220729425428836 1.6891864789733801
3 1.3600421768799449 1.1312764334821304 0.8476073910780905
4 1.1131209679217327 0.830221160492316 0.6393880892968659
5 1.0916077242501987 0.6120958735631763 0.7612565599582835
6 1.0593429227306792 0.5544925744542069 0.7534685484380678
7 1.0468503938095133 0.5395221880020872 0.7459045240625932
8 1.0302273978147993 0.43640764036806856 0.7905446545516466
9 1.029292057693174 0.4201033114772672 0.7995866610649395
10 1.0543763771957977 0.4171034482372291 0.8334303189537228
11 0.9709890853840899 0.37401426723311426 0.7541919760259418
12 0.9665686010354739 0.37039904815153035 0.7509033308996174
13 1.1675918965227525 0.37126246493561266 0.9959961706201399
14 1.0780096841897258 0.29753434502639586 0.9298228509670187
15 1.0379201884450895 0.2539926020255089 0.9073509329671623
16 1.0326496326194785 0.24085213741880163 0.9085775290696665
17 1.0568529999987453 0.21372104464912034 0.9503774086946863
18 1.0225791142161431 0.18674151949022222 0.92678289007774
19 1.0177650545093935 0.1847259673795395 0.9225615094946076
20 1.0039088585578921 0.16986748102141913 0.9154045637146397
21 0.9948543099473119 0.16249984389825256 0.9095247407973512
22 0.9464209920828582 0.14609722704600636 0.8658033652100771
23 0.9549340873644909 0.14177673113648048 0.8775661684876939
24 0.9644594399445595 0.13859573784186696 0.8897113427715224
25 0.966547880108329 0.1314338757149316 0.8959804288191636
26 0.9600724401904598 0.11943017914009124 0.89571698168181
27 0.9756552858511555 0.11810026866002854 0.9131281225267736
28 0.9738983603931257 0.11702025216894807 0.9118430589786104
29 0.977269090650568 0.11645392472550031 0.9157515770204748
30 0.9767498533534811 0.11620262364853484 0.915334721496738
31 0.9764102947550651 0.11609613266852381 0.9150305628967528
32 0.9768084223506557 0.11608666439364723 0.915460555994374
33 0.9723770826594195 0.11451171805626437 0.9115950157964767
34 0.9706850775678754 0.11329201225576546 0.9104600526970889
35 0.948717093242824 0.10523205357587251 0.8915335492482825
36 0.9465783787197622 0.09701114939886968 0.8938677070242906
37 0.9311730054514905 0.07527497206196332 0.8898360489548609
38 0.9251718292791824 0.05976159298184658 0.8922899308576453
39 0.8935841161988416 0.03810274470119934 0.8720033417491384
40 0.8822445998525047 0.03140510540063712 0.8642629394855875
41 0.8830698932546223 0.030803757237102714 0.8654528751674618
42 0.8821314854493212 0.029481778855865892 0.8652596019491255
43 0.8797703344753244 0.028340429993261806 0.8635134112621305
44 0.8781906998615439 0.027686078458715957 0.8622834956466414
45 0.875676961679107 0.02673909617434478 0.8602738198046053
46 0.8746049797613655 0.026097100057034917 0.8595561474193194
47 0.8752116766719075 0.025178619253041434 0.8607071858244298
48 0.8742911415896961 0.02407277409897668 0.8604139853368471
49 0.874297669316133 0.023676856520052136 0.8606506597055332
50 0.8738070131504823 0.02345653945880455 0.8602802780327825
51 0.8739466342848026 0.02340641997411297 0.860451218607784
52 0.873734984641117 0.023316868339387176 0.8602882976342434
53 0.8737635293685977 0.02330516119157766 0.8603240924576562
54 0.8735921563191134 0.023193350152158954 0.8602150344129764
55 0.8737177197971477 0.02277507155382863 0.8605856043030802
56 0.8736654318557688 0.022630386438412975 0.8606165815165967
57 0.8735553990078856 0.02257204018526726 0.8605387817818311
58 0.8738407536600694 0.022609376815332705 0.8608067645771986
59 0.8740656266427947 0.02263539148947946 0.8610199348383178
60 0.8739971839926697 0.02260835813185602 0.8609661546746538
61 0.8740411489171775 0.02261197809557447 0.8610086828278123
62 0.8742009095253354 0.02264104397467459 0.8611539852083644
63 0.8742486512637021 0.022639740174165257 0.8612032071829714
64 0.8742076063924512 0.02261902736192878 0.8611735665430573
65 0.8743597163856517 0.022643041326940505 0.8613140381481401
66 0.874255979240895 0.02260302702888839 0.8612319607455168
67 0.8744647219298083 0.022638635273416252 0.8614231913678432
68 0.8744948594581301 0.02262737083973032 0.8614603231600184
69 0.8746267279715984 0.022643523108856645 0.861584813105156
70 0.8747053649549588 0.022641833651633747 0.861665620661143
71 0.8747993487837195 0.022643320092364916 0.8617601641640519
72 0.8748686643291723 0.02264360277732347 0.8618303644266578
73 0.8748790242768756 0.022628768868150462 0.8618494870054207
74 0.8750175767101448 0.0226437647636748 0.8619814352919781
75 0.8750524716613811 0.02262552513577687 0.8620274375128176
76 0.8752534993505714 0.022646992961391388 0.86221905288855
77 0.8752053153095153 0.02261208245710189 0.8621903858713138
78 0.8755267386718962 0.022666662177065033 0.8624850189727244
79 0.8754962130811847 0.022633588804719995 0.862473205563381
80 0.875736292959825 0.022665678986622417 0.862698311010514
81 0.8759110933945304 0.02267341035963988 0.8628712726542478
82 0.8761013454921696 0.022687119936010802 0.8630564568075361
83 0.8761331754795129 0.02266826726380511 0.8630996894403384
84 0.8764511025615193 0.02269344678757257 0.8634078343365488
85 0.8764891439441928 0.0226537055647974 0.8634694632048232
86 0.87697748239568 0.022719356972558447 0.8639271657127734
87 0.8768460199610167 0.02263648115161121 0.8638416877934658
88 0.8774780963102433 0.022730059993711138 0.8644291466109508
89 0.8776032792922931 0.022696459043326955 0.8645756512771214
90 0.8780242765698505 0.022736658715237223 0.8649797520929443
91 0.8785910745675346 0.022754419367550627 0.8655448324276355
92 0.8791871380240915 0.022748135255536983 0.8661535016447461
93 0.8794301785815003 0.022696080760040926 0.8664302385304009
94 0.8801072356555361 0.02275672174465937 0.8670824784924265
95 0.8805828729663517 0.02274680639539195 0.8675709710255877
96 0.8811155139511092 0.022749222002160896 0.8681102043653013
97 0.8818487335674215 0.022765768197603564 0.8688448772346309
98 0.8823022950169341 0.02273375312415371 0.8693236374722559
99 0.8833431448012977 0.022840180564854484 0.8703188673713734
100 0.884975250146821 0.02278560476409497 0.8720066448189101
DNC lambda: 1.00000    energy: 0.8720066448	 0.02278560476409497:.10f	   6.3715034978	CN: 114	99
1 2.8718855379529127 1.8343104301925068 2.5324723321115634
2 1.7233779597602978 1.6075374184684923 1.167259257285661
3 1.7965224791800891 1.309964729768971 1.3847484567351573
4 1.7967019360672316 1.1479522634324923 1.4422848482998232
5 1.7809643073331702 1.0039681610877609 1.472367380413922
6 1.6475034096825063 0.9403855628726276 1.331871586168447
7 1.8040720139090356 0.8600087199979547 1.547471198882825
8 1.8317411520194924 0.8389809175792258 1.5862833071120899
9 1.7700516835375006 0.7630317636903583 1.5394970603101457
10 1.7237905653881131 0.6544715738860014 1.52216370323138
11 1.6459149916405194 0.6286855158270637 1.4423420689558857
12 1.553453451520559 0.4999479942585392 1.383209901563243
13 1.5174905719585168 0.48107880536766423 1.3497032379806013
14 1.4957711678861172 0.4718524004273048 1.3287132821839676
15 1.5307171518147036 0.4580367961118905 1.3729742178015676
16 1.6434977625889744 0.43683059242938826 1.5047439327691525
17 1.6286093297188533 0.43025624297876686 1.4906750503944595
18 1.4222652679031154 0.3503903823364667 1.2932316536286348
19 1.4374813598871188 0.35203388438670924 1.3093199668668505
20 1.4325608274620631 0.3499130723103361 1.3047288806753892
21 1.4234732225589 0.3423094854197599 1.2976773597171438
22 1.5040516241971362 0.3560409256738428 1.3806268006149236
23 1.524733093595821 0.3599381143823517 1.401739238347821
24 1.5149700660233159 0.3568974824569764 1.3922057385637054
25 1.509466485453595 0.3554120735386821 1.386750517277331
26 1.5166496221756947 0.35581736796676355 1.394420563703402
27 1.4779055368587972 0.341516426577805 1.3574565736332356
28 1.1341399971265675 0.12347243390792895 1.0783325550006921
29 1.2051936529826008 0.11615589304151341 1.1559999343200809
30 1.4486432479477258 0.20394540832059604 1.3764526332220586
31 1.7898591687905585 0.13277773062654008 1.7523749922539662
32 1.911321637335607 0.018160293397906813 1.906565002287978
33 1.9210156993082175 0.006335479368547947 1.919365998870484
34 1.922703931343244 0.004383570271313975 1.921563643840987
35 1.9243193238259675 0.0024354331864242518 1.9236864159377962
36 1.9259260483627727 0.0004616102124126442 1.925806203528754
lambda: 1.50000    energy: 1.9258062035	 0.0004616102124126442:.10f	   6.9754801220	CN: 38	35
1 2.8732920897246803 1.8308396365063118 2.5347520187127
2 2.7967337535524446 1.3649581126313421 2.541015855052503
3 2.3112232237113615 1.2491704992103632 2.023013171141595
4 2.308189678912353 1.0837027669659358 2.0601060232113237
5 2.2986599905314575 1.0137236412206798 2.0664254428479625
6 2.4781123766257105 0.8104395166952614 2.308809527546667
7 2.5226782307260396 0.7523650831422524 2.3688690070657783
8 2.3945702438985608 0.7214593415165513 2.2388629505728703
9 2.40588844523603 0.6737333934054455 2.261540584980688
10 2.5529295660418585 0.5235371791091481 2.4482467584092746
11 2.3084059639909675 0.6371285542855372 2.1660123592222478
12 2.029145919124041 0.5148587374433493 1.8980448950576483
13 2.100984881701591 0.40963089651610396 2.001126327002506
14 2.085750969958208 0.39297757776085707 1.9893163476231592
15 2.0529144551038754 0.32256424292000974 1.9727882595591526
16 2.1091288015617136 0.30526881275829876 2.0354742663121166
17 2.0742845594688366 0.30198085971681987 2.000168886352851
18 2.062755809974052 0.29633071159487123 1.9896308250494195
19 2.0176630162440254 0.27046022214200693 1.9494880930585166
20 2.010491102141632 0.26763611374109075 1.9427913830490346
21 2.0305338722569553 0.2535281522905106 1.9671145503229632
22 2.0092761236420755 0.20369066134546676 1.9579325523859747
23 2.0000017850248795 3.896665367264518e-06 2.0000008108591696
lambda: 2.00000    energy: 2.0000008109	 3.896665367264518e-06:.10f	   11.9962879895	CN: 32	22
1 2.8765778477400383 1.8286855130431627 2.5389002739504254
2 2.810386488214523 1.3541853615326502 2.5581412884369987
3 2.827785876913544 1.1847306269596034 2.60991232395115
4 2.8346352152741034 1.041841142203305 2.6444877881111037
5 2.621362533033805 0.977744930617793 2.427714274575081
6 2.8099075049702797 0.798706392606868 2.663995832181693
7 2.8220372441427255 0.7783578028252913 2.6805850862271425
8 2.709293606478371 0.7527987531985909 2.566607311784564
9 2.76844556563271 0.5362697805497296 2.669835401166462
10 2.7309503260514223 0.505213293211435 2.6368307473459374
11 2.7589765523387024 0.3521498992052434 2.6944019219762865
12 2.6806897438172483 0.3311726774360082 2.6181911361035075
13 2.7123199466790844 0.30855525302621256 2.6548303599527823
14 2.682977386090028 0.3015900535085638 2.6261716624702798
15 2.7035757192440686 0.29220150029267256 2.6489847431409284
16 2.7041055519654487 0.28759850928396435 2.6503939946518136
17 2.7796356847351222 0.21847172801033654 2.740055257078323
18 2.79043961743925 0.17304461048038267 2.7592587135124034
19 2.7651070251197267 0.17314413118454475 2.733618980249793
20 2.7500827784183928 0.17141674195801304 2.7187384107698582
21 2.75435269915819 0.160074264796096 2.7251393591087982
22 2.742151532973823 0.1582949760131358 2.7131347282760494
23 2.7516813133120746 0.14455177342144498 2.7252886593183883
24 2.7571015394163103 0.11401454690812418 2.7363468990140234
25 2.7507135425622384 0.11110860072771622 2.7304425268640213
26 2.7498568798196223 0.10601912384211865 2.7305116252543566
27 2.7482070577324245 0.10619707254819222 2.7288175020734013
28 2.747761987625317 0.1062575125168781 2.7283581927822005
29 2.7478422793200297 0.10608746579374184 2.728470217214209
30 2.7477442488862125 0.10603553555754885 2.728381007434575
31 2.747893970674522 0.10591157209116098 2.7285545077894686
32 2.750554062283044 0.10379889919040686 2.7316201694875786
33 2.7503145350125746 0.10359720578655018 2.731415903101335
34 2.7494388697780785 0.10330192248917669 2.7305882472751875
35 2.7092539270183367 0.0931150677400403 2.6920144452294896
36 2.56047994122545 0.004017616850291894 2.5596952772874335
37 2.5612539934906993 1.5746043471764892e-05 2.5612509195954587
lambda: 2.50000    energy: 2.5612509196	 1.5746043471764892e-05:.10f	   6.1461515249	CN: 42	36
1 3.548111887977316 1.904390568831296 3.268747068950832
2 3.49283877439536 1.437653446689998 3.2805897727740483
3 3.4841658194543688 1.1756995055254986 3.3111496420319977
4 3.5046889629590727 1.0268079530003007 3.355001754706969
5 2.959889300009321 0.931793506912582 2.7980620367313316
6 3.086118032239042 0.5994989263271222 2.9874111840494693
7 3.0561094723678512 0.5426163701621523 2.9660055186958694
8 3.090618722162873 0.5062001164885199 3.0076110069779887
9 2.8825516587184783 0.3648366981737823 2.81855767494775
10 2.9489374352762283 0.27344586733892307 2.902203667876294
11 2.9914149834641495 0.25120706341503407 2.9491280982484946
12 2.9869430823079486 0.23572363120148943 2.9472199350821815
13 3.0099993291848244 0.22693524599410075 2.972063376797169
14 3.023471066029308 0.22156348913587287 2.98660573192722
15 3.03621134264332 0.2183213797262198 3.0000429892702756
16 3.1131316692389848 0.16738974839473997 3.086130107695391
17 3.119121735166206 0.1429287745605734 3.0961252597764304
18 3.1097505460485464 0.14296496242109313 3.0866783920953176
19 3.107585268860756 0.14298592956625278 3.0844935197977197
20 3.1069506688629653 0.14286539186217517 3.083873711241407
21 3.1512760461426645 0.12181105671392878 3.1318891522974788
22 3.1699998377510656 0.07004427576885774 3.1589325246945243
23 3.1800653546674433 0.05673394201132709 3.1711325607651353
24 3.179320607346753 0.0568308060521705 3.170370438647123
25 3.1425853758883147 0.0589563688620629 3.133191101079702
26 3.072523476071673 0.04375063274610724 3.0653955500498546
27 3.0570216056199215 0.04016758444685209 3.0504448057259044
28 2.9856662665793796 0.01781950930167575 2.9826805973969743
29 2.9600051502489433 0.0015537144097379496 2.959742687310931
lambda: 3.00000    energy: 2.9597426873	 0.0015537144097379496:.10f	   7.0541230709	CN: 40	28
1 3.5481577131119963 1.9043922141788983 3.2687965588175176
2 3.5717058180093257 1.4503577133026244 3.3625473583429337
3 3.5653934214601524 1.1860241961756124 3.394997209662435
4 3.596471266109833 1.046110921622109 3.4479696411557272
5 3.6760807964456887 0.9988030960071352 3.537621648224924
6 3.744574395325792 0.9648952678023619 3.613439100680563
7 3.4923383469471116 0.9002002218114473 3.3609860023132847
8 3.549847627978199 0.6945642004806096 3.4506309540983713
9 3.648351177326772 0.637283095052176 3.559941462727929
10 3.6208212163722746 0.6104220129869855 3.5355231957865314
11 3.695955197454077 0.5504073783840191 3.6207288552450025
12 3.696887313949056 0.5274258337919839 3.6248517181045457
13 3.697919787935473 0.5168459469991884 3.6273633414651947
14 3.3952419747197906 0.398163055144904 3.3360912774914055
15 3.435230687053649 0.33757852952174794 3.3857394087190666
16 3.441408404639956 0.3150419765857002 3.395327647067485
17 3.391238804493242 0.039925013995619096 3.3853471926975427
18 3.396726176802066 0.022777004769597653 3.3933717325696553
19 3.4344205111585446 0.0026777102676156517 3.4340306546679087
20 3.4332819184103402 0.001898311001516717 3.43300545008042
lambda: 3.50000    energy: 3.4330054501	 0.001898311001516717:.10f	   8.2691852077	CN: 30	19
1 3.548307321661908 1.9045404592731394 3.2689362780094626
2 3.571842275257891 1.4504680881137357 3.3626758914896526
3 3.9448815527680328 1.3543912622165255 3.7693101760339385
4 3.979755824921918 1.1347028969117954 3.8345473695193983
5 4.012664072202381 1.0117161006341604 3.8845536237397518
6 4.237208755445006 0.9002449960569194 4.129611730073773
7 4.411340934383158 0.7211038260915004 4.328836450280026
8 4.268475673937397 0.705864808413665 4.1849754802844
9 4.280101803139247 0.698094634570996 4.197758546017725
10 4.27897419299074 0.698048700449224 4.196614283423189
11 4.225602800035914 0.7042813761648254 4.141429420804673
12 4.230072370448041 0.6787640921742444 4.149065939106496
13 4.150663356942492 0.6729907983118828 4.068785507292469
14 4.12497218642485 0.6605011791676212 4.0441184898085005
15 4.02994205397586 0.5537849620183763 3.96063732199564
16 3.866365444457553 0.4866423846696719 3.802911958674008
17 3.86734939243174 0.4860362023638416 3.8039919979908348
18 3.7205281048570367 0.4050466219467097 3.6656899428462824
19 3.7877043608270733 0.4313339868619508 3.730331129828353
20 3.795231438417849 0.4345163797429379 3.7375480319873184
21 3.4552417950221375 0.06124528270371066 3.4463677371058488
22 3.479621870561929 0.005693422622135458 3.4788036649789196
23 3.4788829431177217 0.0024772375539487967 3.478526885674663
24 3.479168938303418 0.0013611706030491888 3.4789733155993425
lambda: 4.00000    energy: 3.4789733156	 0.0013611706030491888:.10f	   9.9503193417	CN: 30	23
1 3.5491981252585703 1.906090997787146 3.269666089152194
2 3.9554046963619554 1.8472101939813186 3.7145680930655844
3 4.348353417336493 1.479952592873115 4.174712546893359
4 4.400008226041777 1.2053924143496886 4.260830901935163
5 4.484480611169449 1.021585206406165 4.369093858633452
6 4.5185526686658966 0.7980807278946855 4.429360844592932
7 4.558033503974762 0.7024664497819195 4.480312820950623
8 4.5700674305812194 0.613372477267454 4.502459754710948
9 4.618160505314541 0.592325169571069 4.553578953227448
10 4.633483421195217 0.5842162910845481 4.570005724657945
11 4.610932723492694 0.5827025424620373 4.547306679575694
12 4.627348327653992 0.5690684150345859 4.5654445709489915
13 4.6272861364003255 0.5658199391420169 4.565737295221949
14 4.68348976398218 0.4706369651806739 4.632973063179321
15 4.688961867152262 0.439893474831365 4.64181752299427
16 4.706048889341851 0.3567067704861415 4.667996291599804
17 4.715858987060664 0.34161014070043905 4.679499529345033
18 4.723064533894526 0.2920139256195107 4.692049090292301
19 4.760922677158505 0.22330980234689335 4.737412261513158
20 4.775117983176784 0.19882240750981595 4.7542538158735805
21 4.777671788436244 0.19296722997716387 4.757434233706485
22 4.778128801241257 0.191665332507025 4.75803000292602
23 4.779071421887003 0.19062864907753863 4.7590855220745425
24 4.778562625024508 0.18986070922094456 4.758655277708207
25 4.778928428228443 0.18893948133904104 4.759119397618738
26 4.779098865500518 0.18879257477941636 4.759305977918305
27 4.779232781925689 0.18835547313489798 4.759486370470899
28 4.7806636625074255 0.18718673761375726 4.761045926727146
29 4.780916211135892 0.18687390628993228 4.7613323672699055
30 4.789611480380413 0.17620884080423949 4.771181121293512
31 4.790345639498041 0.17285087284538747 4.772269949721254
32 4.801705559692068 0.15909409854272383 4.785110467213373
33 4.8163634056180795 0.1343581953813917 4.802395054511404
34 4.840336650962502 0.09229173096754906 4.830793637041779
35 4.841858388927166 0.08492975691648041 4.833080063635186
36 4.842803953746907 0.07866440896644633 4.834675348506892
37 4.843241646586254 0.07641182768864141 4.835346711409523
38 4.8408072927065735 0.07757474165903844 4.83278806730257
39 4.841493166639977 0.07207327258085172 4.834044146472055
40 4.838418991182853 0.07270233187643171 4.83090012340997
41 4.806372497196654 0.089537098511137 4.797049039075717
42 4.803178423217151 0.08777446356231877 4.794032592890507
43 4.804663119373431 0.08580542724748952 4.795725415765559
44 4.807750950143478 0.08229158216072463 4.7991850992064045
45 4.808320710345091 0.08119553873860497 4.799870051865459
46 4.80829045001427 0.08066410526474854 4.799895097440535
47 4.807646428487005 0.07911650882545018 4.799411179771786
48 4.7390824862318714 0.09657143598143847 4.728882677264073
49 4.722930643051193 0.010833358925939507 4.721783614286663
50 4.724019354560641 0.0003646919005539928 4.723980754656287
lambda: 4.50000    energy: 4.7239807547	 0.0003646919005539928:.10f	   6.5469322006	CN: 60	49
1 6.588584959582576 2.290296739513245 6.412421931698233
2 6.640834780708801 1.8418441633985125 6.500680150666789
3 6.467951836658002 2.306097446215901 6.2871538485320775
4 6.417625802632068 2.314098956077906 6.234727097999637
5 3.914888051747238 1.0658815661522745 3.7763033368045282
6 4.558395185452226 1.216032405550127 4.423000594755093
7 4.904191517966004 1.0779883010991824 4.793026824856138
8 4.930370498539524 0.9567773099457852 4.83236752978528
9 4.905910034416333 0.779951113460875 4.825764411191868
10 4.954260590731433 0.7834798747916274 4.874547991976583
11 4.876215837381523 0.7442864699389808 4.79929103334976
12 4.832991399801907 0.4681327812052949 4.784315320853539
13 4.906994957093394 0.40862791408614285 4.865179502839937
14 4.914085874806293 0.39503271822885466 4.873726219920635
15 4.825993493257247 0.3446303161910578 4.790154786723518
16 4.828281563864458 0.16538925733878784 4.811123943800932
17 4.825887471130837 0.1528422008958117 4.810025746617348
18 4.819563824732692 0.12275999117279923 4.806811361963273
19 4.827466792690997 0.1161837405984194 4.815418143207906
20 4.827936816402051 0.11238937994667353 4.816283268582081
21 4.82504270165689 0.1087186765484951 4.813763433766134
22 4.822384074270524 0.10564790202349883 4.811417697285747
23 4.821793430819745 0.10513967812874014 4.810878528020398
24 4.821470763645368 0.10476573655977361 4.810593995353097
25 4.81516635618001 0.1007742961673479 4.804690701962045
26 4.812894390255834 0.09933996833068193 4.80256311186281
27 4.814287055250481 0.09896268859957047 4.803998039316083
28 4.8235367214007265 0.09738244691591547 4.813431629906605
29 4.834649656644943 0.09174138836632295 4.8251524239272205
30 4.835581782097913 0.09079421885962091 4.82618451289397
31 4.847159921309037 0.07483867729171223 4.83943391580595
32 4.853314242473778 0.07285826013534447 4.845802397546095
33 4.870398012208191 0.06208199199123143 4.86402043636026
34 4.874032845525414 0.056489286194629784 4.868234473920287
35 4.876750280881053 0.0479615517110652 4.871830431199588
36 4.8816331197459375 0.045689068275855504 4.8769511836314905
37 4.890957058872206 0.041368824947916494 4.886726115384813
38 4.924383987193461 0.025680082812300498 4.921775855371216
39 4.9940708253120345 0.02265636440894525 4.991801983635156
40 5.0314331007986315 2.7939716304103968e-05 5.031430324281141
lambda: 5.00000    energy: 5.0314303243	 2.7939716304103968e-05:.10f	   9.0887964599	CN: 42	39
1 6.595230677958572 2.2692972669691542 6.420885486326377
2 6.812386808554597 1.13904712455858 6.728266262924654
3 6.871055799888495 0.6736124748491363 6.821861573671235
4 6.88757077889319 0.47591568034248866 6.852934813196522
5 6.917829974431207 0.3375823300807994 6.893387354926318
6 6.931237252713759 0.2808741467117031 6.910946078989132
7 6.947149448208077 0.21250438338743294 6.931838217410325
8 6.958596629789896 0.16494595785746924 6.946734563682839
9 6.920912452529994 0.2937634693091553 6.899656926708427
10 6.9179586551469034 0.268468326678601 6.8985276420148764
11 6.904813180710957 0.30988923771364085 6.882336508977608
12 6.907891376960769 0.28950773583388667 6.886904641423102
13 4.928981767031762 0.4423663791651897 4.88390160430842
14 5.05955409790073 0.532697187719883 5.006634646333222
15 5.07950278701652 0.5296076864183163 5.027100643202827
16 5.077530372552084 0.5093487150453981 5.027123031033108
17 5.044416356734516 0.4708341177421751 4.997529615955122
18 5.034034685870028 0.4570671198893663 4.988430424357263
19 5.034661254068489 0.44876760666330284 4.9898944213836005
20 5.040053678937615 0.4516543928704415 4.9950462153720006
21 5.038971953369063 0.4468045896115349 4.994440284679405
22 5.026524695749443 0.4292485106215622 4.983643446952988
23 4.830430943488229 0.15120224847998998 4.8147544954367705
24 4.8463757091334765 0.11165798190294396 4.834842244807587
25 4.8541276912885 0.10139001277673287 4.843672741892983
26 4.861291596671297 0.08790759055375474 4.852241584805235
27 4.860406793889409 0.0794348712904629 4.852228285107355
28 4.864537951475417 0.07797585232476578 4.856516614716754
29 4.86497984010939 0.07607286311440475 4.857155132539662
30 4.884329294661303 0.0743345876147039 4.876713859872432
31 4.884252794766774 0.07003159280915838 4.877078405190743
32 4.883016214115096 0.0640070918478024 4.876457756964898
33 4.909861341007803 0.07951151846129534 4.901757528628037
34 4.91552250737694 0.06437234173478856 4.908970276829397
35 4.92729445824188 0.05893020357841294 4.921310849219213
36 4.939791702924588 0.05570072113928859 4.934150519303532
37 4.95150890466212 0.061208230260191954 4.9453242767980425
38 4.992687126043331 0.0635703232862852 4.986316718307466
39 5.031365178321779 0.0008344472916910206 5.031282253097838
lambda: 5.50000    energy: 5.0312822531	 0.0008344472916910206:.10f	   9.0708592333	CN: 44	38
1 6.596850290348347 2.2666061789805383 6.422758564222116
2 6.8399344265847475 1.0828389240152774 6.760315379918598
3 6.897625701495052 0.5983596566022555 6.854114141252889
4 6.9171130978600015 0.3940193644314647 6.88857272910397
5 6.928391616790977 0.2790606795814483 6.908223340051913
6 6.9618686457509735 0.12496512457092734 6.952887883183472
7 6.966978089771547 0.10715745569036983 6.9592834579191
8 6.973369620445034 0.08753003926040748 6.967090771913719
9 6.9800991148565386 0.06739560520845345 6.975269747329674
10 6.985790075472215 0.04984463452677801 6.982221590872013
11 6.993637662707333 0.025951956938392584 6.991782018934808
12 6.992542922569344 0.028287772381574428 6.990519919976842
13 6.9925862460027375 0.02812674008983862 6.9905747737719555
14 6.9924323893780445 0.028439950808930803 6.990398469988261
15 6.992291347520848 0.02872835322487788 6.990236758178511
16 6.992540286619918 0.028122887924645568 6.990529076692118
17 6.992523368321019 0.02816037231444568 6.99050947243483
18 6.992087673763139 0.029129698654379865 6.990004316088513
19 6.992105573899404 0.029088350008024122 6.990025179249862
20 6.990839898689494 0.031742335774083585 6.988569249376789
21 6.987060352638284 0.04020784108811171 6.984182452536713
22 6.988506980735119 0.03643200491081444 6.985899928776011
23 6.989246936652867 0.03463367416794938 6.986768857443584
24 6.9858257495859535 0.0411780127825736 6.982877873111888
25 6.984687355927366 0.04347480427657757 6.981574511224172
26 6.984109300779751 0.044360816771799705 6.980932739144992
27 6.980409298660346 0.05119257273766209 6.976741460315563
28 6.948974384255147 0.11557965923399394 6.940653091302015
29 6.96003242893049 0.05377102933626077 6.956168513084469
30 6.956667346915151 0.0016466359773446015 6.956548996424747
lambda: 6.00000    energy: 6.9565489964	 0.0016466359773446015:.10f	   0.9837696377	CN: 38	29
1 6.59751060416943 2.2663159920060707 6.42345936237803
2 6.840622430200342 1.0819987599450158 6.761073618340138
3 6.90374265758789 0.5998185627273429 6.860163563609204
4 6.924303320830003 0.39328932639318026 6.8958456444778555
5 6.961847947806759 0.23205507040285056 6.945161753190369
6 6.972779795369331 0.1200822224956326 6.964163686489221
7 6.979746779480441 0.08816944960587847 6.973427826833924
8 6.986745698785195 0.06552266910632909 6.982055054952452
9 6.994756834784726 0.042587451224115114 6.991711931032595
10 6.99858898512905 0.029851475029545327 6.996455981976884
11 7.000018876685358 0.013899164581673062 6.999026011479716
12 7.000249816126539 0.013602029807941562 6.999278209813616
13 7.000418368176364 0.013149942589926411 6.9994790796823665
14 7.000765584714396 0.012502029264595649 6.999872623330864
15 7.0021020899129764 0.009547214633215617 7.001420317544894
lambda: 6.50000    energy: 7.0014203175	 0.009547214633215617:.10f	   1.2158434881	CN: 18	14
