reached convergence:  7.78722693679247 5.7594449250461475 86 7.137967012617338
reached convergence:  6.4255368614224375 5.768409570409519 87 7.692297487827759
reached convergence:  7.271196738442329 5.764488243428421 86 7.670475264379296
reached convergence:  -4.654062967793419 -4.04859150335789 71 5.955097048664209
reached convergence:  2.7447479073631103 -2.670985789439846 58 5.347570409026742
reached convergence:  -6.414585905842368 -4.05151794928881 62 7.127045649251198
reached convergence:  8.155312065774462 3.2893889965870016 94 10.390086724639334
reached convergence:  -6.474440937511978 -7.065244522293861 30 1.2648709178771815
reached convergence:  8.284052846960547 5.762330409894746 79 7.82985524325157
reached convergence:  4.699124885101321 -2.6701604798077954 62 3.6075057233776953
reached convergence:  6.328245360367888 5.466862007116904 54 4.591727416069846
reached convergence:  7.808253452608929 5.463651314155104 54 8.010212558811562
reached convergence:  1.2731577173189061 -0.34270542193159337 93 3.502897565211628
reached convergence:  0.2339505532341945 -1.9925926237443576 72 4.417087088969253
reached convergence:  4.8487696863413445 5.455866517658408 46 10.00716229114627
reached convergence:  -2.046520585910706 -2.6659386512452703 63 4.833034666248648
reached convergence:  8.201519641416981 5.465294035970888 53 7.144759195449726
reached convergence:  -5.570076456008892 -3.158647389945852 60 3.3310148651395943
reached convergence:  3.917640730540474 5.466062442112122 56 10.72893650539697
reached convergence:  5.49514916482963 5.455730716785993 31 9.740333446474871
reached convergence:  0.8696713869341811 -4.051028795365636 64 7.225870823352476
reached convergence:  5.2770437003563995 5.462799726441116 49 9.698307385687768
reached convergence:  -5.552936463072177 -5.236244298938521 95 3.300007469633889
reached convergence:  4.468710878451246 -0.6576618229707527 82 3.8275367007756183
reached convergence:  -4.8885048842592 -3.76334793492401 85 4.68357944819248
reached convergence:  3.2770982850695907 5.757427220845491 76 6.899838264254044
reached convergence:  -2.2341183070349206 -4.047336057579121 59 1.4286708429141208
reached convergence:  4.682161180940601 2.4112279317299965 83 9.575896823685556
reached convergence:  3.4849600714261935 2.3850436926666423 82 9.47882241386612
reached convergence:  2.2759322753431626 -2.6721062055348224 66 3.420025176619333
reached convergence:  -4.732045447568056 -4.048474601270197 59 7.15023374198176
reached convergence:  -2.074046946029125 -5.237649577987323 77 2.977995059627245
reached convergence:  7.2563944991488745 5.760850404059617 71 7.167994711540407
reached convergence:  2.8504133258871684 2.4005785911648396 86 11.526881491420202
reached convergence:  0.8710938065777186 -2.650809527423162 89 1.8250741570775588
reached convergence:  3.252028512530829 -2.669643155904395 58 2.6595965034619193
reached convergence:  -0.8222739978914632 -0.6581165897295671 84 3.9299494136530235
reached convergence:  -2.4745806785649926 -2.6677426862019353 60 3.949733890905403
reached convergence:  -2.1957888285528355 -4.047942868457756 63 7.706515524992481
reached convergence:  -0.3799926492598479 -1.6915375178647918 86 6.119219665404495
reached convergence:  3.939936927734321 -1.691741043532856 75 6.122922939884598
reached convergence:  2.292780666869164 -0.3427089456195363 97 8.121647465394059
reached convergence:  8.053853376894956 5.767540320489992 71 7.739089811963633
reached convergence:  1.9839904413762284 3.6108101888012722 82 5.1194124943161174
reached convergence:  -3.966399833626691 -3.1688954090176584 70 3.5462146532162397
reached convergence:  5.496045125482623 5.465879430587143 74 4.813020510910482
reached convergence:  -1.258765372348448 -0.812832026376983 96 7.441586880840188
reached convergence:  6.339183433233167 5.456963482181838 29 4.383857217949201
reached convergence:  2.63391278544801 1.4632636991857861 97 6.81617350714533
reached convergence:  -5.599520884428069 -4.046587818237701 79 6.632291191927676
reached convergence:  -3.51931808919725 -0.6580955440960145 87 3.7654495522812703
reached convergence:  -5.594063904356292 -3.7673538263368354 87 4.605159482486021
reached convergence:  -1.5711252483712277 -4.0472851934005245 59 1.4517460525749093
reached convergence:  -6.432277667832975 -7.064556260035996 24 1.2601440144264928
reached convergence:  1.883077431627476 -1.9918061725244565 59 2.896399684362499
reached convergence:  -3.424679125491141 2.3873115652827988 93 9.29538855083474
reached convergence:  -3.267190633206633 -3.166347612079136 62 5.5719912603928305
reached convergence:  -4.691154937029554 -4.994663500676053 80 2.22142718475443
reached convergence:  2.495048497368587 5.758868664267731 79 7.921359819913637
reached convergence:  -6.389834322129374 -7.064211515836687 27 1.2590589612049388
reached convergence:  -4.331801421299384 -4.981999743901516 55 2.1370700940991463
reached convergence:  3.753468915320602 4.407010254970421 59 3.1190358922660897
reached convergence:  -2.598814446564428 -2.6708622154082198 53 3.017211225425973
reached convergence:  8.76366837751343 5.4561066435025865 37 8.554193701191274
reached convergence:  -1.9348811580012537 -3.156628508846886 66 6.418452206795328
reached convergence:  -1.4475767462695217 -0.6581444710125748 98 3.813530757139307
reached convergence:  -0.09602341214614774 2.387973875356141 94 9.850995387934073
reached convergence:  -3.6154548046643002 -2.6713805289976253 61 3.224637852906711
reached convergence:  8.91322602031092 5.456749373762477 38 8.937048639150147
reached convergence:  4.857905076065367 5.460440633982563 43 4.58983973028564
reached convergence:  8.012235262027898 5.7641233267492336 84 7.820648149050338
reached convergence:  -3.3143200346913666 -4.0478182250067665 75 1.4213628471316737
reached convergence:  -2.2654850201504 -2.6647044454384785 66 3.3872503347132614
reached convergence:  -6.388183161311264 -4.048889308090151 65 6.472228411020017
reached convergence:  9.096109582415556 9.77115186514369 7 0.6358982694033752
reached convergence:  -6.375057056767257 -7.064866886996353 25 1.265039079305891
reached convergence:  -3.000803068821983 -2.6715989640809856 61 3.183942997271696
reached convergence:  -3.112303399125298 -0.3426305899932128 92 9.031457690275388
reached convergence:  7.194559504106672 5.460537663933895 46 7.26211359421662
reached convergence:  7.586274624403595 5.458176078590348 40 4.470163533922088
reached convergence:  1.1284865592094018 2.4014051621045427 87 8.695339796180328
reached convergence:  -1.8699311545059694 -4.046511840025229 76 1.6127900010354843
reached convergence:  8.981619601895531 5.761962015189598 75 7.126298055977215
reached convergence:  -0.4183302887257981 3.38118661962816 96 10.891279967878127
reached convergence:  8.278385687411285 5.456238948065739 28 4.385641921597697
reached convergence:  4.928999726922436 -2.6661425615988246 62 4.281557569130354
reached convergence:  7.135962579767332 5.764184402000485 73 7.63329357296859
reached convergence:  -0.8141004477626874 -0.6581060309221622 100 3.8734107311525205
reached convergence:  4.580881593297222 -2.6677621647305614 72 2.079644704521986
reached convergence:  0.6053809900015947 -2.6704366017205734 62 2.535889725012131
reached convergence:  6.268466717394455 3.381955998943706 98 13.754224762732012
reached convergence:  -2.343849317850824 -2.6702052499993236 62 3.9086873925043504
reached convergence:  6.185423559446908 5.471258427861305 92 6.135896794495345
reached convergence:  2.0743495843528876 5.7580060192214555 84 7.19841066509703
reached convergence:  9.09053725888655 5.456712213984491 41 8.338388368479746
reached convergence:  3.578680158090723 4.532955602647739 47 4.168686699289538
reached convergence:  8.838914832509515 5.45929741345726 41 4.456745896682
reached convergence:  8.021882237614863 5.7594249776763595 65 7.064871382990902
reached convergence:  -6.372734692924882 -3.766975418377803 83 4.167056917979205
reached convergence:  5.218907024643509 -5.235290192988585 92 3.1078533401853217
reached convergence:  -1.2747319652529971 -3.1639626655437247 69 3.728652530875932
reached convergence:  -5.027405658531672 -3.7634087546004578 75 1.8642066903367511
reached convergence:  1.6844792067303886 -2.6671990403585255 63 2.8035132775055756
reached convergence:  7.7989416652563746 5.464498352854424 74 4.8374463792307445
reached convergence:  4.780003932915085 5.4702365125539165 52 6.3785318691602635
reached convergence:  0.33547056089344474 -2.669865557886723 61 3.7882257603804623
reached convergence:  7.776083094022548 5.455548622886673 45 5.778477220213414
reached convergence:  -1.0511848150302545 -2.6723177291734173 61 3.0346195321603826
reached convergence:  1.4577269609216126 -3.1678595708562174 66 3.941866267851235
reached convergence:  -5.059472609603715 -2.6713514502476903 60 3.83512748816487
reached convergence:  -6.393149024316121 -7.064203668103706 29 1.2568377854627841
reached convergence:  -3.5218223269682385 -2.67218034161734 62 3.1891594718905725
reached convergence:  0.1899932259927976 -3.1754421057170026 68 4.028165362892349
reached convergence:  -5.003273222460661 -4.048723140747505 62 6.734866985559106
reached convergence:  6.309518771635993 5.463674328556511 51 10.671492253990406
reached convergence:  -6.098307595250832 -4.047563931363433 68 1.4635080108928893
reached convergence:  4.408528556896296 5.455362020345648 40 4.641634755030737
reached convergence:  -6.601612489739428 -4.0486604934900505 76 6.958472703740082
reached convergence:  8.177030091568756 5.770160416828787 61 7.850097409534593
reached convergence:  0.40648171857367565 -2.6720572219264977 58 2.892532601656699
reached convergence:  0.8722004853878318 0.8820225593877313 78 13.330359186652329
reached convergence:  0.7408415863662949 -1.9931039055849613 66 4.273086062564966
reached convergence:  6.5643637752752655 5.460428906842663 58 7.247783675538526
reached convergence:  7.971533675989915 5.759686463953093 87 6.993168864755925
reached convergence:  5.664103051430515 5.462720667956442 51 4.6654068887207245
reached convergence:  -4.457222676318959 -2.66971517692116 66 3.78949976439472
reached convergence:  6.951839413180019 5.760331523898288 76 7.834807741218858
reached convergence:  5.818234345796344 5.766443643666127 70 7.851491202702684
reached convergence:  5.1991420132769655 3.382509491725716 99 7.36294735452746
reached convergence:  -3.280066812137379 -0.6579429765646263 82 3.8469177216149375
reached convergence:  -3.8965831559346698 -4.979427235417959 40 3.03290732109555
reached convergence:  7.753986902420367 5.7662113193562785 78 7.4837319196012375
reached convergence:  8.866041674237245 4.846012998179279 37 4.924221202786996
reached convergence:  8.16087073627214 5.461660322861151 57 9.15416471335704
reached convergence:  7.100746825488566 5.765401394913468 85 7.589200267770209
reached convergence:  -3.8988636882271366 -4.051376300449868 62 6.383822801758609
reached convergence:  -4.087860175601023 -5.234516366254302 93 3.259775461830403
reached convergence:  9.044138063904166 5.464925619754983 55 8.685272256792556
reached convergence:  1.9235298311495064 3.4049424020899495 79 8.613700500729024
reached convergence:  8.869742542404598 5.455754301082504 38 9.63148890832755
reached convergence:  -5.521687512649924 -4.046913183766344 67 8.029710958875375
reached convergence:  8.762481298355993 5.458088440758148 34 9.056831571701878
reached convergence:  2.336815696725626 -3.1693593592055684 66 4.12382544319031
reached convergence:  8.96571610174035 5.454418736024426 44 4.461236542373279
reached convergence:  -5.647972936072409 -4.048158268436866 67 1.4340079367214467
reached convergence:  4.584931420834471 -2.6696650929348946 64 2.9899755924076428
reached convergence:  -0.8604858409633651 -4.047970284211276 66 5.737334919706368
reached convergence:  7.95072164011472 5.759756198869474 94 7.789205142642929
reached convergence:  -2.0153115589818356 -0.34267857024647685 97 7.210784435064477
reached convergence:  -2.5650191963265563 -4.047523050016641 65 3.1589143365807404
reached convergence:  -3.2339704801001417 -4.05062651033072 74 7.044267863232387
reached convergence:  5.5260137300144265 -1.9901247269916817 67 4.571968663544276
reached convergence:  0.9277065943170792 -2.671166226235067 66 3.6657878435615645
reached convergence:  -6.594930764757442 -7.0643189380164495 27 1.2563036424725587
reached convergence:  5.4050209058823615 -1.6915676964859583 72 4.372604036949095
reached convergence:  8.960576812718978 5.463811440396425 52 6.404482742556526
reached convergence:  3.7520464875597206 5.763092400620197 83 7.4336368487681845
reached convergence:  5.431206726768613 5.463245787931877 54 4.772232473615959
reached convergence:  4.683631788016819 2.379476340012654 86 12.298505008686224
reached convergence:  0.14837513807383126 -3.162062586358255 64 5.195599338396049
reached convergence:  0.8939420233934249 5.762347016426676 82 7.596435915645468
reached convergence:  -0.481820631541623 -3.16367801147231 76 4.225989789752241
reached convergence:  -6.527054547230892 -7.064532866254532 32 1.2611584114895842
reached convergence:  8.311762106589093 5.764513381913022 75 7.6541639062278195
reached convergence:  7.1810032105723405 5.461151396686384 38 9.85611607730601
reached convergence:  -3.133440710638343 -0.658182793125798 86 3.9085325925635246
reached convergence:  8.50700550507725 5.461012985832396 67 6.592049782790008
reached convergence:  3.7625547641758583 5.461842089856233 56 9.646094951450115
reached convergence:  -6.438107376922947 -7.064672973816057 28 1.2640836980895473
reached convergence:  6.32099095357475 5.4659616813355285 48 6.784094823659876
reached convergence:  3.7414093323253237 -2.670074008210374 60 3.5505482520349174
reached convergence:  -4.847922263121143 -4.99612144688832 75 3.3961213528613947
reached convergence:  9.126624155699448 9.771640303864288 10 0.636341671611181
reached convergence:  -4.127510443753404 -5.238213332326328 93 3.346546596279071
reached convergence:  7.250671292536472 5.761802497324737 77 7.933485070752943
reached convergence:  -1.2160576359880972 -0.34271353872206717 83 8.322931446336138
reached convergence:  2.9765960843776726 4.39924674567858 63 3.00755968009678
reached convergence:  2.7120849618318044 -3.1592144077236513 63 7.255068808285085
reached convergence:  -6.042987396915564 -7.064200155329379 32 1.2504088296749218
reached convergence:  2.8437413148336166 2.40919487347219 77 8.25221694709457
reached convergence:  4.096572113461371 2.414246822764241 83 10.577645052773162
reached convergence:  8.103024596173922 5.457273753535894 45 9.957423492019663
reached convergence:  -1.5140299126045573 -0.6577949738537463 76 3.8903194914337744
reached convergence:  -0.19586378564184884 -3.1573194984501898 65 6.280100308541962
reached convergence:  -5.784297704880457 -4.0463429586256865 71 4.874134261193953
reached convergence:  2.931790741425198 -0.6577216048637937 78 3.824593395122052
reached convergence:  1.6269582276949772 1.3156752924698614 99 10.162978223597824
reached convergence:  0.08595652829550435 -1.6913995748542825 77 6.02789742244599
reached convergence:  -2.138040469534497 -0.6581217238856938 95 3.8482310676588702
reached convergence:  9.141918602879354 5.46430125654549 35 4.717357093590034
reached convergence:  -0.9805879457216453 -3.1720208624174466 62 3.901773907916604
reached convergence:  -5.4698989309813175 -4.978880535396982 42 3.458132200488026
reached convergence:  1.3552751680707726 -3.156102145089506 63 3.567577107364109
reached convergence:  -5.068650179591454 -7.064600499824546 24 1.2620635782896032
reached convergence:  -2.876064586118633 -3.158386041625152 64 3.3299235098937365
reached convergence:  6.286277379529464 5.761705579644188 65 7.7418047388601
reached convergence:  -5.015218646330904 -4.048147119160567 69 6.799848271836154
reached convergence:  5.469030312925141 5.462741312716741 61 5.787186835839022
reached convergence:  1.0334373309155602 -3.7419599366216794 70 3.2481684377861617
reached convergence:  6.915594343381668 5.457491246622834 49 4.584884155881591
reached convergence:  -1.720310318742123 -2.6668975267261086 62 2.7609307608523377
reached convergence:  0.4059004731357748 1.4631159208685933 87 7.443353373528679
reached convergence:  4.437123450837532 3.3822818217044537 90 10.937256893449273
reached convergence:  8.16974846828227 5.7662645441489095 90 7.9025954767838655
reached convergence:  -6.465794698350419 -4.047417366751615 65 6.825246967188252
reached convergence:  0.40035836871968533 2.4080517454618673 95 7.621633103315935
reached convergence:  6.510494098337262 5.4646911284879955 68 10.665324899619472
reached convergence:  9.304876955758086 9.771900766821929 10 0.6346485774182263
reached convergence:  0.8707876364524377 -2.6676105135581976 64 3.9000442733325826
reached convergence:  1.0659002836922238 -3.171595602533952 80 3.7497385741352103
reached convergence:  8.170014871740733 5.467195401805545 47 4.895557185201225
reached convergence:  8.976303031781306 5.456052786481779 42 4.501603039009663
reached convergence:  -2.3513432982344735 -5.2345546598925665 94 2.9576953387360936
reached convergence:  8.76461250556749 5.764831757838753 67 7.354043687652391
reached convergence:  -5.558384379952879 -2.6538282126197936 67 4.621640810372485
reached convergence:  8.421266578966335 5.762165106731622 79 7.223571937496825
reached convergence:  2.243794059261704 -3.156557241447333 68 6.121345556641915
reached convergence:  -5.697832967500148 -3.7655344705496816 85 4.814368066411913
reached convergence:  -4.6907828539931 -7.063908796941098 31 1.249870899647056
reached convergence:  -4.838266117906694 -3.157518229110396 57 6.9894924671784855
reached convergence:  0.42311201837920104 1.4635865623468751 81 10.64141466746
reached convergence:  2.27905438534278 2.4131472151633684 86 9.286622647132035
reached convergence:  4.6409682324084045 2.4012978206997078 87 8.720165689876602
reached convergence:  8.331469948480827 5.46322167527006 89 7.393777166836601
reached convergence:  8.101748874844295 5.458636307793335 41 8.659501928221015
reached convergence:  7.804443933801123 9.771901377472458 12 0.6338078469498546
reached convergence:  8.890796533221547 5.456705085246787 43 10.057114551150027
reached convergence:  -2.0940462844966485 -2.6063532520988617 93 4.730634671823548
reached convergence:  1.7708777912152165 -2.671868342936823 66 3.5983920671483056
reached convergence:  -3.09261504659454 -4.046472340207655 61 7.048155572153124
reached convergence:  4.253899696551315 -4.047897552618469 71 5.867094435723525
reached convergence:  3.902789339321387 -4.995041243282316 96 3.426476110980379
reached convergence:  1.5458201057736367 -1.6908039406964508 63 6.06025972172161
reached convergence:  -2.7441958568099283 -0.658137524605851 89 3.7776079336231825
reached convergence:  8.067374467906253 5.455936315636685 43 4.76610757682618
reached convergence:  -2.961904883561584 -3.7683478576649367 75 2.748689411696969
reached convergence:  7.4644467332126 5.760659840200096 70 7.864147976548185
reached convergence:  8.917942523569844 5.767109861970462 71 7.598380275842488
reached convergence:  6.353519153665497 5.459911696509739 54 5.501499647643007
reached convergence:  8.140964098298523 5.756416253714724 72 6.890445157375425
reached convergence:  8.816674959685155 5.457588721781895 40 8.881071429815687
reached convergence:  -2.4505769645719364 -5.237654615257046 87 3.2161642883977204
reached convergence:  -6.372127435168927 -4.050778174126924 57 7.742107044459826
reached convergence:  6.303758452708514 5.7574863157816845 98 7.826873915763803
reached convergence:  3.0457653810695797 2.401266304057457 95 8.96195023441786
reached convergence:  8.791090314196447 5.766480864967411 79 7.889077561878276
reached convergence:  -6.675645285252271 -7.066122615406313 25 1.2853360224706791
reached convergence:  -3.552141350538891 -3.155950737888099 62 6.5873248659072114
reached convergence:  8.902619821265322 5.46168291419699 56 4.619500562038988
reached convergence:  5.042921577167995 5.767348784615331 100 7.9131614635304395
reached convergence:  8.283656109996905 5.455122993576204 41 11.194623247874192
reached convergence:  -5.82007214320682 -3.163045631086923 66 5.073951896849122
reached convergence:  -0.9345188286290457 -0.6581379286133118 92 3.779984879262058
reached convergence:  3.552862562432324 4.410444506790576 53 3.124884471063132
reached convergence:  -6.415939559826005 -3.7648522369309347 72 1.9702546393514042
reached convergence:  3.764623543370539 2.412812802554398 90 8.549128112283471
reached convergence:  4.247204659007776 -1.9893151792447856 87 2.9050768019699365
reached convergence:  7.350260804127552 4.8432386793815905 53 4.914365343663879
reached convergence:  5.753862609396511 5.759353851431608 69 7.59835342590699
reached convergence:  -0.2633988211012143 -0.6581713352032217 96 3.7851934293862137
reached convergence:  2.441827510007932 -4.9801484043270605 54 3.3480779602739608
reached convergence:  -4.9780138645839624 -4.048417522175802 64 6.566456249420755
reached convergence:  -5.162040731351083 -3.16312735653824 61 3.6523275315435857
reached convergence:  3.3817327676230122 3.3842071764323105 78 7.650757629115537
reached convergence:  -0.29652780230787784 -2.6716752680855027 61 3.1295466549830033
reached convergence:  7.694534886144247 5.4574013534604235 44 4.622213568300347
reached convergence:  -1.6584299557232511 -4.9956229928662506 80 2.2438205807650133
reached convergence:  7.128921860666603 5.459252288120039 46 10.286342406814207
reached convergence:  4.978940395571021 5.762503036820993 67 7.903245786868673
reached convergence:  8.0146376189675 5.459023899243267 47 9.467035740578742
reached convergence:  1.8997322482920351 1.4651372604850326 65 10.097841576911007
reached convergence:  -2.7989188399264373 -4.04880608958706 64 1.479353589772988
reached convergence:  -3.0867085851487217 -3.156028831652196 63 7.386225318578731
reached convergence:  1.1025181676036164 -4.049283566659867 68 1.4567340902027308
reached convergence:  -3.8849187971558634 -3.7645386959765768 81 2.9332123815109767
reached convergence:  -1.0262991401241575 2.401647146437192 96 9.374583715411159
reached convergence:  8.053559470769533 5.456234546403884 38 4.479455886505837
reached convergence:  4.900313324335298 5.459219898731 41 5.048777575068385
reached convergence:  -5.749631497573651 -3.1621619639177077 64 6.449199228651347
reached convergence:  5.309801645007644 -4.993161729789199 86 3.3733389354330345
reached convergence:  -5.7264017117645984 -4.049458561526822 60 5.920750837979164
reached convergence:  1.8088624456523965 -2.666670505232534 69 3.148285158186667
reached convergence:  4.02516636942085 5.464150961663917 59 5.426014100892045
reached convergence:  -6.009468033911492 -4.048329337979 58 7.230475495417641
reached convergence:  -5.681078397614039 -4.047837446064549 94 5.639422926079553
reached convergence:  7.95102789532777 5.7594070374552855 72 7.39216241263189
reached convergence:  -1.548735936231081 -3.157307170067186 63 6.920986134815575
reached convergence:  -6.445684027235585 -4.048802442805684 74 6.51343410198088
reached convergence:  2.9042506720170294 4.404413273037397 63 3.03361486669816
reached convergence:  -4.0631286784226734 -3.1820869375471794 64 4.10124650606494
reached convergence:  -1.9526834591603184 -3.1772084597995947 66 5.014065725320707
reached convergence:  4.244106748360637 5.456645807210662 50 9.629764541500196
reached convergence:  -2.5371693753221236 5.458115791273961 44 4.530178190618322
reached convergence:  -6.502767134037539 -4.050485676912928 61 7.197918484283294
reached convergence:  3.03339223391109 2.3997188451789566 100 8.495587295962927
reached convergence:  8.096902484005511 5.4617791225314125 49 4.525744576320114
reached convergence:  6.635027474535359 5.4613075333066 50 4.952575306849641
reached convergence:  4.898833833368545 5.456326503181835 41 9.724290999257015
reached convergence:  0.24036762189417032 1.4636194838384808 78 7.06745790336195
reached convergence:  -2.140248657030988 -1.9898783408510061 75 4.3383546631657275
reached convergence:  2.6313569436323694 1.3156269345195537 96 10.107812154633177
reached convergence:  7.493899466326193 5.762157898133278 63 7.622644645251821
reached convergence:  -3.007989724770664 -4.995787586315709 96 2.3547706150369736
reached convergence:  -0.20396963473757312 -3.766683625829759 79 1.4822452549319136
reached convergence:  -4.686214929480683 -4.0484765069857085 76 1.4269461258629255
reached convergence:  9.045249511249587 4.532037875258701 52 4.243229769594381
reached convergence:  -6.6141636754704605 -4.05020796247797 73 6.5267659928000645
reached convergence:  2.2749727614158037 -2.6644011430530377 73 2.88562621792451
reached convergence:  7.202330030961429 5.75760585162441 99 7.022268377242372
reached convergence:  3.4590570344650757 4.403590557830104 55 3.047950570658328
reached convergence:  7.212941993406369 5.459879860641164 56 4.855213876428675
reached convergence:  8.15663732550606 5.457663306835897 40 9.531306713152057
reached convergence:  -6.7385074705701875 -7.06424449955877 26 1.2583668475898295
reached convergence:  9.190638837709447 9.77156492131637 10 0.6423801935592552
reached convergence:  1.5860750134315953 -1.989395698855492 63 4.571703878209124
reached convergence:  1.3330413885297285 4.400765040646803 61 3.095651783878993
reached convergence:  0.7690491376585106 5.7666831294859335 71 7.660943377054982
reached convergence:  6.373725628547454 4.531799189520179 44 4.157881461189933
reached convergence:  8.230328289788932 5.4577344312881175 39 10.279149911994564
reached convergence:  -5.636974484171964 -3.767114323199685 80 5.091556820221132
reached convergence:  1.0541253952740046 -4.050617324273006 73 6.6717968995800305
reached convergence:  9.153215738446816 5.760071066723943 91 7.721243952494145
reached convergence:  9.55417181747443 9.77087132801074 9 0.6437478485751882
reached convergence:  2.6569457185424104 2.4115341616375736 83 10.809725605580775
reached convergence:  -0.2174892939644462 -0.342664499288568 81 6.245337486945442
reached convergence:  -6.233830183247708 -4.051020040202052 68 7.258392195193936
reached convergence:  -6.703016908782676 -7.064593954484774 35 1.261480783593603
reached convergence:  5.961823867560124 5.771429278174574 65 7.948652805961974
reached convergence:  6.795574144184898 5.466569398739623 52 9.517995401984487
reached convergence:  3.542360931029309 2.4023694941569262 85 8.905679606628924
reached convergence:  2.7728087022544288 -3.1746448494144115 65 4.890431275545105
reached convergence:  -6.438077468290421 -7.0648603204873295 25 1.2693909007727102
reached convergence:  -1.7241383812258473 -2.668072961178143 68 3.4714720215531365
reached convergence:  6.327566629815389 -2.6667573475991837 64 2.235652318209399
reached convergence:  7.012493786162351 5.456461444224053 48 4.527627025914141
reached convergence:  8.960621015511204 5.76632837300188 82 7.7044358207970705
reached convergence:  8.816878665855707 5.762925819757953 62 7.3021108196125155
reached convergence:  -6.64647846004742 -7.065840938664263 25 1.2810425977624944
reached convergence:  7.556111382942692 5.764230679197466 67 7.910897279685662
reached convergence:  -5.808024628133839 -4.05029494916196 64 7.689145830190141
reached convergence:  -6.586854685069041 -7.065120059694609 27 1.2647274727722508
reached convergence:  -3.980735530086413 -0.6581510532337407 97 3.7830684748813086
reached convergence:  8.09326701675182 5.7574086537675715 84 7.807688575957485
reached convergence:  3.9216317503094857 5.461103301835537 48 10.581152046056058
reached convergence:  5.899521622829595 5.463252792687296 55 5.279673800165939
reached convergence:  -6.534358556246194 -7.064465058935952 29 1.2616173777167514
reached convergence:  2.49491975853218 1.4634216712778048 84 7.062522826556874
reached convergence:  8.770104035004978 5.466632067317168 60 10.603678490352463
reached convergence:  1.2586938220315824 -4.049181415609045 75 1.5191014530303741
reached convergence:  8.792429453672673 5.761134724479386 66 7.83894629133144
reached convergence:  7.007410135288791 5.764691831600603 69 7.395039650030143
reached convergence:  5.517871237944982 5.756013650475697 71 7.902193495720413
reached convergence:  -6.662155782866147 -7.064392888686769 25 1.2602644234284717
reached convergence:  -6.069927870750736 -3.1566788239505903 65 3.1517336678451313
reached convergence:  8.61333091354871 5.457967522633634 35 4.426415615856544
reached convergence:  -2.310859735252719 -4.981639572934961 55 3.808366874578353
reached convergence:  -1.1063080936544507 -2.670585362602748 58 3.3039261500633694
reached convergence:  8.331516974385119 5.462090717326566 58 4.694530570476094
reached convergence:  -6.598777214261883 -7.065652191396878 24 1.2782903592122064
reached convergence:  -4.849398434673357 -4.050258526150508 64 6.643045223323372
reached convergence:  -5.6087707472524375 -2.6726076230345397 68 2.785104648668443
reached convergence:  7.550778449107588 5.766746855129403 65 7.997537372690445
reached convergence:  -5.695206925669124 -4.050214837699189 58 7.014943735526574
reached convergence:  1.7962124385497564 -2.672485840456198 60 4.874711056039211
reached convergence:  8.038995128388798 5.769740997065869 65 8.096101120561949
reached convergence:  -2.697802612849904 -4.996664766290947 83 2.9130862508078943
reached convergence:  -6.584190542656935 -7.064866584300425 27 1.2683546008676236
reached convergence:  7.513860088536497 5.458751112670581 38 4.5215356427774225
reached convergence:  -2.2677671841457654 -4.049576633017911 63 6.3702828927127575
reached convergence:  9.225529671109731 9.77187613193458 10 0.6394596844390095
reached convergence:  -6.549184369763115 -7.0645783937869835 30 1.2568661658040705
reached convergence:  -5.236489100031104 -4.047930209779641 60 5.673988550950711
reached convergence:  -1.2976932396164476 -0.6580015145502311 87 3.9294734750553544
reached convergence:  3.0258109265259807 2.3875460498736265 80 9.50266605375795
reached convergence:  8.23572660134164 5.464171828941769 57 7.264038359903831
reached convergence:  -1.5574502955258955 -3.1766632797174834 71 4.640708505668896
reached convergence:  6.5015077033003426 5.7581204576556235 86 6.944671668011332
reached convergence:  9.306646094073152 9.771603850258295 10 0.6402744526011751
reached convergence:  2.4387929279465856 -3.160603327744437 61 6.371079164019714
reached convergence:  -0.023122584345058858 -2.666725847525915 65 3.2383895212060603
reached convergence:  -2.2010737138705796 -4.9984985384033465 95 3.4161450001018796
reached convergence:  6.109801533014087 5.45490312007878 49 9.01354755017088
reached convergence:  8.818131629614603 5.457775606357989 49 4.635571218527537
reached convergence:  -1.815835805893634 -1.9904672987339804 65 2.483268411239582
reached convergence:  3.9223667555104385 2.4036276011071633 98 9.409217880967915
reached convergence:  0.5144892331886481 -4.051050274109473 59 8.067488694475646
reached convergence:  -2.6040231506622167 -2.669148740309649 60 2.291970352606095
reached convergence:  -6.004924780716058 -3.766494346789618 82 1.4929636400447113
reached convergence:  4.4908045196011885 2.402266451975119 95 11.427279311148123
reached convergence:  3.879695715460996 5.764746281825348 77 7.405819478795791
reached convergence:  0.727880010328727 1.3155112404925842 87 10.174753891414445
reached convergence:  8.992093297868168 5.460580331834676 49 4.597521958578738
reached convergence:  8.772373974626925 5.758383156438592 77 7.8426937659586065
reached convergence:  8.942817471611882 5.7616527663167245 93 7.36863628980484
reached convergence:  -0.25180119890372304 -4.048869489639383 92 6.408199403334295
reached convergence:  -2.768248768073133 -3.7350776684582874 67 3.084106013420371
reached convergence:  7.455320704442647 5.763310383469756 75 7.850232683492169
reached convergence:  6.672797434712931 5.455273941049552 35 10.405320191127977
reached convergence:  -4.793034966775881 -4.050351601142507 72 7.585092708300313
reached convergence:  -2.1140117095809834 -3.157547381373451 61 3.142357129110199
reached convergence:  -4.054063404914101 -3.1635997293791065 66 5.557822677657986
reached convergence:  1.4302314886628902 2.4076250376215134 88 11.199247239606
reached convergence:  -1.4255657819333065 -0.6580606724213358 93 3.788790821030359
reached convergence:  -6.424481917104385 -7.064535661009863 24 1.265283199738549
reached convergence:  -2.4664625520585166 -2.6724537120626133 61 3.001076361047203
reached convergence:  0.5694049933670794 -0.6581673652426898 82 3.9099399446840666
reached convergence:  8.886400870364836 5.762054098948584 78 7.518356311895904
reached convergence:  8.905223242738312 5.456654043705585 28 4.402729774862189
reached convergence:  -6.113736578476346 -7.0648998483011525 30 1.263402899113903
reached convergence:  -6.594020331793333 -7.064589559842767 26 1.2605536164793145
reached convergence:  1.9478687107030364 2.402562102385656 86 11.43985715427609
reached convergence:  -5.829481818844655 -3.7671772587838075 76 5.056808154834621
reached convergence:  -4.525213367087244 -5.236489946040134 75 3.1830142612446273
reached convergence:  5.712496234749072 -2.6514089673246364 80 4.742202833523912
reached convergence:  3.3140490080133786 -2.6709389538967545 64 2.4397267878941045
reached convergence:  -3.1025659566730326 -2.6700087966027892 61 3.1301590313596908
reached convergence:  -4.75038085836295 -5.242909229843064 94 3.249230183683157
reached convergence:  -4.758648684711401 -4.047668196839651 71 1.4290973063147339
reached convergence:  -6.374218430944577 -4.050030298641576 63 7.477879692374208
reached convergence:  6.5925862515151685 5.455651926387745 47 9.305381247648226
reached convergence:  8.824371277982866 5.765710782017361 74 7.89382055337097
reached convergence:  -1.417833209866079 2.4078326445397504 86 8.569713111525921
reached convergence:  -1.3434090089507276 -2.6707075315251645 60 3.059476211251972
reached convergence:  2.7728699168663216 -3.768263800427084 80 5.2282321209860925
reached convergence:  0.4080603856828935 -1.6915133745466187 84 4.0060940821632975
reached convergence:  3.9275343311610253 -2.6700116711047173 65 2.8222797710223517
reached convergence:  4.591497276718017 5.7588143870434525 95 7.555306361148426
reached convergence:  -6.642588579854884 -7.064320407666792 22 1.2541809131819677
reached convergence:  2.6687510707951456 -2.671045719319582 58 2.5620934364859496
reached convergence:  -3.6092335633036505 -4.05007388288868 66 1.5450009017305653
reached convergence:  -3.916533818734339 -3.1733112148401394 75 4.646025714620517
reached convergence:  4.294742925656144 -1.6912010493714087 84 3.7592449703495374
reached convergence:  5.852220285514004 5.456326120437024 43 8.958167662115498
reached convergence:  4.5646287268945755 5.456199375427573 39 8.853935978307547
reached convergence:  7.136297107565002 5.463112480947267 46 10.496740283267643
reached convergence:  7.945148510028289 5.457732496223218 35 9.678253904127283
reached convergence:  -5.529727516090043 -2.6711351130761 59 3.1861294459062517
reached convergence:  -6.444713325400672 -4.052872865539385 49 1.4150297360183586
reached convergence:  8.363815268033289 3.3817757756588804 82 10.905890417094932
reached convergence:  8.688370441179947 5.758263351900406 79 7.751227884183817
reached convergence:  1.8407660993968695 -0.34269743157852584 100 3.8862757125810923
reached convergence:  -4.575288866687022 -5.236644374826396 82 3.3514531311448326
reached convergence:  4.1225558052943665 3.40551373125462 85 11.201640372183599
reached convergence:  -1.4526534085314557 1.4638201192819988 86 9.923824471601193
reached convergence:  -5.718415052248614 -4.052092228313149 61 6.719880958257048
reached convergence:  5.91149062337762 3.383930204936404 71 7.87615435721321
reached convergence:  -1.9820509755285145 -5.235406259841817 97 3.424790118189146
reached convergence:  0.6917448737195455 -3.767548821785973 99 3.374411379279525
reached convergence:  2.143077401970995 5.762139852844809 70 7.18466666988827
reached convergence:  6.83327518288107 3.3813767803447123 98 11.943468574762111
reached convergence:  3.3363169786859723 2.3903953459283294 91 9.320138447170779
reached convergence:  8.80838074476528 5.455342770055083 37 10.059897106281896
reached convergence:  7.349950258317926 5.455419771539134 36 9.367300622507734
reached convergence:  8.84428633380552 5.765586281057404 83 8.048024298670446
reached convergence:  4.1637455783160995 3.382390476187223 87 7.485334404732251
reached convergence:  -2.6254630143449798 -3.1674743734834134 63 5.320679245186349
reached convergence:  -2.848105596273305 -3.1668470749390054 67 5.6788810144423385
reached convergence:  2.4428819788979346 -1.9903249308634128 65 4.2656827759152725
reached convergence:  3.000201681312346 3.383670484342127 91 10.422670457276325
reached convergence:  -5.617730370048175 -4.048740209338618 59 6.7925207884787255
reached convergence:  6.2516313483517365 5.463610350797325 49 4.60616820501304
reached convergence:  -3.0009561320686604 -4.049707578178765 61 7.506930534282947
reached convergence:  -2.022600104643736 -2.6672017226703137 65 3.70081178801459
reached convergence:  4.791955444731066 5.7638241898629765 67 7.335134098692019
reached convergence:  6.967836960910098 5.764400087449149 66 7.875273083361378
reached convergence:  -0.25597290270888085 5.460329463564057 46 8.160761509838375
reached convergence:  -6.622056839440471 -7.064151747501667 27 1.2565759999026622
reached convergence:  -0.6093599475703295 -0.3426916509557594 99 9.138318598975586
reached convergence:  1.5313621221701037 2.4120689648076863 86 10.840793164716938
reached convergence:  7.431357992766276 5.463191637281969 49 8.58174268788774
reached convergence:  -0.2771500926396147 -5.2341189620891875 85 3.133526460467166
reached convergence:  4.7042171160908 2.406602766493545 80 8.70497539681172
reached convergence:  -3.956137072100817 -2.6718075860870707 62 3.6239554374107303
reached convergence:  -5.028821907832775 -2.669694260522541 63 2.5716369853540315
reached convergence:  -6.422959582858075 -4.048434809253314 69 2.452163589178227
reached convergence:  3.7985496418315283 2.4089976878021053 86 10.968422798041555
reached convergence:  -3.6212302497583204 -2.6698541274010115 59 3.2483302304303243
reached convergence:  -6.416792019487749 -4.050632978304328 53 7.14124885929635
reached convergence:  5.798593657333367 5.465687208955298 61 10.04022550094511
reached convergence:  0.1417179968434637 -0.6577384282740741 80 3.881441164229908
reached convergence:  -5.6784984841912465 -3.763986057990099 98 5.165703666072665
reached convergence:  4.004126135892233 3.388602370368106 73 10.38018552070752
reached convergence:  2.2506538585753915 2.404147242059653 85 8.776164634381061
reached convergence:  -2.9660061533964037 -2.6705752541410757 68 2.837752989904129
reached convergence:  4.7757927723233955 -3.168707025003517 65 4.750751500112384
reached convergence:  6.859184877400915 5.454344074681382 37 9.799914931026162
reached convergence:  -0.013487802388230774 -3.157987057365264 54 5.965208384349148
reached convergence:  9.185200911502546 5.462847604590846 46 4.585649334252113
reached convergence:  7.563002358108231 5.462840663630187 59 10.094721094631952
reached convergence:  0.2349998650985799 4.414252703742887 61 3.0748244131074354
reached convergence:  -0.43257133471974146 -4.050865965032467 83 7.235605891752642
reached convergence:  3.1413281519670146 -2.6627535386618533 68 3.096952932775291
reached convergence:  3.0311338451604284 5.76197087390771 99 7.191348096750666
reached convergence:  -1.7067359717010113 -3.1634813787481555 72 3.421215063511518
reached convergence:  3.1373549693220952 -2.6687858021617474 61 2.2887933776018987
reached convergence:  0.6862568691136293 -2.670616766296265 64 4.289119195097618
reached convergence:  -4.827617139931639 -2.669142970813092 58 4.892951159493833
reached convergence:  -0.4988748890923763 -2.6667677124313176 66 3.189827935175962
reached convergence:  7.934408186453367 5.455460419672326 35 4.606315467161088
reached convergence:  5.330440136906871 -2.6640767066223896 63 3.1412434368722617
reached convergence:  4.666143466815438 5.470538781118341 90 10.392755773517585
reached convergence:  -4.317275617024174 -3.1565824748460787 61 6.352839109478608
reached convergence:  7.3602971074051435 5.7608683125568465 92 7.818991725995361
reached convergence:  8.063166480536456 5.460896969829549 51 4.83265205733045
reached convergence:  2.6202286097998413 -1.9910123712644447 71 2.7739495843124886
reached convergence:  -1.6697205671822568 -4.048650356119011 67 3.1504444401265004
reached convergence:  8.957445584455762 5.763392401303491 71 7.3210305336810775
reached convergence:  -2.916360576509515 -3.157590342497259 64 3.2300244990333464
reached convergence:  8.702384610004609 5.4572837365099165 42 8.93605285547735
reached convergence:  7.0885046031527885 5.767337901706201 97 7.704829542845012
reached convergence:  -5.5929187143825025 -4.0508429285242755 54 1.4299569930090508
reached convergence:  5.447099756623474 5.760373976695076 70 7.066784084325417
reached convergence:  -6.686682363048879 -7.064695268367314 23 1.2583721558074545
reached convergence:  2.097258351763606 -2.6712884246339312 59 3.2645618524027618
reached convergence:  4.141568279869978 5.761043873615205 86 7.184933679791259
reached convergence:  5.597901843929524 5.46198106589277 73 7.208960438884762
reached convergence:  4.354356377211255 2.3856767788524214 86 12.073867600601266
reached convergence:  8.100977446162856 5.462181849807462 51 9.103531462697255
reached convergence:  -2.654227951189392 -5.241816447836063 81 3.2648952884466627
reached convergence:  -4.068230142958328 -0.6581427219502259 93 3.9375932027216853
reached convergence:  2.405873447981234 2.4106983281500787 92 11.008171473603763
reached convergence:  -5.700814040701064 -4.049299466381988 56 7.359743584901126
reached convergence:  -3.569191809462887 -2.6651732115968008 71 2.4104706600516965
reached convergence:  -2.934507269290898 -4.048523071629763 73 6.729393389560239
reached convergence:  8.915174478405815 5.756537560066786 92 7.826712236602172
reached convergence:  -3.8032029343003084 -5.238553986717514 88 2.9832808839761196
reached convergence:  -4.992505634933326 -4.050522963246595 62 9.87144686587943
reached convergence:  7.448499902858708 5.461063165277262 50 10.346017976798928
reached convergence:  -4.003797857358721 -0.658170290947857 91 3.8660149423193113
reached convergence:  6.592099016259214 5.760580790794579 79 7.116545517103036
reached convergence:  8.878432189325283 5.460096526628085 39 4.836887414902212
reached convergence:  -6.539666673681136 -7.065134520336864 20 1.2706893799846077
reached convergence:  6.523179347377311 5.757448255448857 80 7.498479141087754
reached convergence:  6.91894208350051 5.767551545832056 98 7.823825020157303
reached convergence:  -4.854651712798659 -3.7675870229000457 88 2.750297620011466
reached convergence:  6.168509540741702 5.765099358963033 82 7.4789992722906575
reached convergence:  6.602444578022193 5.4637522675349866 72 9.543342335574009
reached convergence:  2.47543024156581 -2.653796139768546 62 4.797522341759205
reached convergence:  2.315059487347458 5.764986562843835 93 7.393494920516342
reached convergence:  -6.078021753257705 -7.064497282338653 29 1.2602871500763073
reached convergence:  -4.066854264738675 -4.995544730309711 92 3.303450752784532
reached convergence:  6.059798834693959 5.765504517332659 65 7.8964489281763965
reached convergence:  4.615655478906047 3.382772023477271 88 7.255869710474774
reached convergence:  -2.4508793863455955 -2.659454969327407 66 5.27542215589848
reached convergence:  -4.372741179786945 -2.660378376383486 65 4.493076073283155
reached convergence:  -6.408270897590878 -7.064222904866078 28 1.2557620562389862
reached convergence:  0.3320094605151389 4.40220886501784 64 3.052055664475397
reached convergence:  8.776414880649742 5.457345237091061 36 9.917674679410528
reached convergence:  -3.5956121984587828 -3.76423664471553 76 4.846769873983421
reached convergence:  -3.870066729866175 -4.049151259080143 70 6.720353945780514
reached convergence:  8.478105397354843 5.7598336259366345 74 7.536525513360053
reached convergence:  -5.013572608491984 -5.239200842813965 93 3.0351229774889315
reached convergence:  1.9594116223017215 -3.7683428780567776 76 4.839774026088019
reached convergence:  -6.457034737359019 -7.06418468310517 29 1.2551941457177311
reached convergence:  5.96051519838591 5.76449295473776 68 7.723643219282763
reached convergence:  -4.088113455502066 -2.671598675155766 61 3.194572913223736
reached convergence:  1.9415319884393343 3.382930741209294 92 13.823864005466078
reached convergence:  -5.764292012273756 -7.064344455715713 27 1.2636388735490893
reached convergence:  3.0429776762477685 -1.9898737593348366 66 4.359310920216101
reached convergence:  -3.074390045839381 -0.6580054669040462 93 3.8209994725908865
reached convergence:  -4.751660592784986 -5.234315606766689 98 2.9948552021590533
reached convergence:  4.872049226384394 5.762260302578825 71 7.652089536935191
reached convergence:  -6.504417249306812 -7.064240671066866 27 1.2635189459146154
reached convergence:  3.288326959964602 -3.1568198710413915 61 6.895237347334795
reached convergence:  5.2633836846823465 5.457543278081229 44 4.6563667211257584
reached convergence:  0.04810127997270991 -2.6629980903561066 71 2.786646118273275
reached convergence:  -2.1846608279523227 -0.6580741640808063 94 3.7766758272575642
reached convergence:  3.5174781592500994 -3.161854543260344 66 6.210311169067495
reached convergence:  -0.1555062025689648 1.4638731609508717 73 9.123186292331404
reached convergence:  0.08058461804462291 -3.769249728876803 84 3.8889443552500946
reached convergence:  -1.0071341416962087 -2.6677141833669538 69 2.3069913007633507
reached convergence:  8.459439078128405 5.464857756756115 46 10.365823401384887
reached convergence:  8.735461752428408 5.763906110726659 78 7.545247567166221
reached convergence:  -5.5726290426016805 -4.0462184591659724 68 1.482458281577545
reached convergence:  9.060621020437521 5.759045316202637 75 7.74112840070999
reached convergence:  -4.204386390007374 -4.0489353496966185 78 1.4366591516036131
reached convergence:  6.941584577372124 5.4626016549759875 52 6.984791043663706
reached convergence:  1.3615547955923921 -2.6528371875834766 68 2.0292332037076184
reached convergence:  -1.6949095646596568 3.3818397875820776 94 11.95671949025288
reached convergence:  4.963276880927592 5.765143876287082 81 7.483270654245786
reached convergence:  -0.6987363006853101 -0.34271698897070557 95 6.080677275212767
reached convergence:  -5.771160426148447 -7.064092296939479 30 1.2529452644051768
reached convergence:  -6.589555482916325 -7.064545371465098 27 1.2634519373710318
reached convergence:  5.055230500177627 -3.1675673534898467 59 3.6833611688203143
reached convergence:  1.354611579326406 -0.6581213826019335 99 3.9278950795552077
reached convergence:  4.634173211675262 5.7667414563287505 67 7.804606457102326
reached convergence:  -3.0614570394561147 -5.236076663615776 96 2.973677036859943
reached convergence:  9.296889481552137 5.468860001229985 64 10.12492388080056
reached convergence:  -6.40826616950798 -7.0645001955361515 30 1.2589746700594664
reached convergence:  -4.350612564460269 -3.1809261363930257 65 4.663818714631746
reached convergence:  2.2603875630607675 -4.048447061943192 69 1.4904667427966063
reached convergence:  6.32688097746156 3.3810431587415968 87 7.5286209694568065
reached convergence:  0.5044796473915696 -2.664353188808719 61 4.713641659817098
reached convergence:  -4.134525454257639 -3.175226684524896 62 4.195101189940977
reached convergence:  -5.948917474405146 -4.048116909617719 70 1.4281110101349983
reached convergence:  6.14642647050232 5.7662971998730725 70 7.685086232973803
reached convergence:  -1.7049957136709035 -0.6581508068816749 89 3.9264221237271726
reached convergence:  5.859577242295162 5.455673740619693 44 4.88287326422862
reached convergence:  -4.685187475306007 -4.049943904023219 79 7.301804323418441
reached convergence:  -2.310516500702016 -4.048507309366471 68 7.6211663386343025
reached convergence:  8.004849166877273 5.763609379773604 77 7.494001072441491
reached convergence:  8.772668113450413 5.761783118516394 83 7.914054557330211
reached convergence:  -0.6667816669677101 -2.670734885368077 56 3.2106184182993576
reached convergence:  -0.7598600027436988 -4.048138567238726 73 4.852517650471163
reached convergence:  -1.7944573813959634 -0.34255193385360466 90 8.31257970080853
reached convergence:  -2.2130129426252516 -3.762838460653162 79 1.5524928467028674
reached convergence:  -0.3779577325790059 -2.6722140037297124 63 3.9983971883214173
reached convergence:  7.784745693018437 5.7620144701505875 72 7.465810125223581
reached convergence:  -0.666268785762454 -4.046346026578246 70 5.29069952396614
reached convergence:  2.177353466610826 -0.6573750395943153 80 3.8512624549388312
reached convergence:  8.18655064386247 5.765272791597587 72 7.916544213542229
reached convergence:  8.499354166978634 5.458159654697781 36 9.709325338743412
reached convergence:  6.339525696175327 5.767050355160508 79 7.903284513446486
reached convergence:  -1.3149486630759397 -3.177649659426182 68 4.0358199150197445
reached convergence:  -2.199395251574551 5.456158737578372 35 9.886494625107758
reached convergence:  0.11355064374438933 -0.6580638739238839 93 3.785399485423252
reached convergence:  -3.1899567066996632 -3.1741527053641434 62 4.789432771549018
reached convergence:  8.323275329404604 5.4620644825173805 67 4.63035829191066
reached convergence:  -6.386935349368839 -7.063862499345178 28 1.242937772332628
reached convergence:  2.8980584435477366 5.461926570937271 45 4.500562349982771
reached convergence:  4.6694268096043565 5.464247687274086 55 9.104157726729174
reached convergence:  7.965058406610905 5.764085345100156 79 7.975101428174244
reached convergence:  6.379147105284406 5.46480441915756 53 8.05992517078748
reached convergence:  -4.961547911840788 -4.04864773015106 61 6.836765751380125
reached convergence:  -4.7875573809628165 -3.175933923486344 61 4.262476889739295
reached convergence:  -5.717143692129821 -3.7644360937591212 77 4.502867270855847
reached convergence:  6.165514960486656 5.461737390186066 47 4.539182140783735
reached convergence:  6.152485463664031 5.760959811153181 66 7.477277479983982
reached convergence:  -2.6038992750301477 -3.1684444133820184 65 4.870835244311034
reached convergence:  7.767891109086952 5.767243341680874 63 7.5693415247819
reached convergence:  -5.527601855239206 -4.996050114101157 73 2.4105770510187874
reached convergence:  -6.5466804669797005 -7.06414849345231 30 1.254907099575619
reached convergence:  -6.46774117622338 -4.050719555777378 62 6.2730826793336645
reached convergence:  8.296831248197766 5.766762923096888 91 7.4892542348893425
reached convergence:  4.046186143768919 5.458569062361229 50 4.863426177457886
reached convergence:  -0.986964699270775 -2.6709192403692588 60 2.577702812803858
reached convergence:  4.859081168193532 -4.996885528603276 96 3.342656424235788
reached convergence:  3.032367268783364 5.460202619459516 50 4.615178623406827
reached convergence:  -3.243364005199175 -2.669890522901854 61 3.479459545294009
reached convergence:  2.780386050463848 5.4646455343994385 59 9.714254982681066
reached convergence:  -4.3855581028852315 -3.764657313611294 82 5.020849659810301
reached convergence:  5.999036059974431 5.763811113917212 75 7.486698470733412
reached convergence:  6.590710803250182 2.4065773968041153 90 11.244180538540746
reached convergence:  0.0792251569278081 -1.9907146668838935 64 4.424238375165684
reached convergence:  -2.9653890187392706 -2.672247420172018 63 2.8238997463492597
reached convergence:  5.3909988486996046 5.46434551528032 57 7.224518318220814
reached convergence:  -6.537421078963445 -4.049746161022136 67 1.705389106794084
reached convergence:  -4.010768393485966 -0.6578742335636089 83 3.8825286762883633
reached convergence:  6.570958851326654 5.766864179782032 71 7.453346524814154
reached convergence:  2.985525611876443 3.392580867930395 85 11.45179404629581
reached convergence:  -3.7860545827404586 -4.997805792387619 81 3.448036408686878
reached convergence:  8.549548587059023 4.528730684271574 47 4.253275543184868
reached convergence:  -6.476333843610816 -7.06563991752269 29 1.2722157207668645
reached convergence:  -2.573373154644899 -0.6581199987825788 80 3.9045580447073354
reached convergence:  5.700662663636192 5.4587789583631805 62 5.25111096932818
reached convergence:  4.765459135588208 -2.605891519282374 85 3.5749291708367688
reached convergence:  -5.5260256030580575 -4.047616077832571 76 8.351630611707895
reached convergence:  2.8663210619726986 2.4132209297565326 89 8.163365355581307
reached convergence:  0.7611624830982585 -1.9905685234610695 76 4.108735381649692
reached convergence:  5.186440217395067 3.387787128216259 74 11.95476045220877
reached convergence:  6.838091073552803 5.462943768084943 52 8.155251157151167
reached convergence:  2.413515510586244 -2.65395123879805 78 4.649716995858869
reached convergence:  -5.009175387130371 -4.99283713020956 64 2.1843235152988494
reached convergence:  5.478788076073647 5.463020311804394 42 10.414923000167427
reached convergence:  3.662784578481909 -1.9878254718521071 74 3.84892254410758
reached convergence:  -4.741704235423113 -4.996647387223707 98 2.5424884280989763
reached convergence:  -5.6731184222559765 -3.1763670777350663 71 4.820670656349692
reached convergence:  -5.620804012841853 -2.650335032168108 97 2.524638176442644
reached convergence:  2.118412801753144 -0.6580990462642842 83 3.9162320923357465
reached convergence:  8.41770961133276 5.468354797266436 55 5.054665887245658
reached convergence:  1.8733766436741266 3.386994439326983 73 11.785421532060512
reached convergence:  5.585118881694359 5.463710645796605 47 10.22841031372282
reached convergence:  6.381178541152498 4.530305798893337 43 4.245083954344061
reached convergence:  8.269259294653237 5.761490136336025 77 7.181103096173282
reached convergence:  -1.8731570331127552 2.3898557332018684 100 9.670744546699401
reached convergence:  2.26179597711973 -1.6903247612042125 72 3.849195471090974
